age, city, name, birthday, email, phone
26,Howabbah,Lily Klein,10/30/1969,ifrued@bilumna.jo,(442) 894-2493
60,Vuluta,Connor Davidson,12/4/1982,ebmot@hed.tf,(502) 315-4408
31,Nebigoz,Lora Cobb,5/11/1968,kudsublak@pezorav.aq,(316) 840-2992
27,Cetpejo,Michael Griffin,11/19/1982,agibez@pewifi.jo,(263) 591-4688
46,Akeevda,Oscar Jimenez,8/11/1972,fepdevuv@iveipige.hk,(363) 893-9999
62,Giklibho,Virginia Hamilton,7/18/1992,pep@ka.by,(878) 224-7890
22,Igetaupe,Mittie Stanley,11/15/1979,peipcu@ci.ms,(775) 415-1669
35,Kewjavsub,Hester Wise,2/19/1957,pidhizme@aw.qa,(260) 560-9522
29,Azeodouno,Ina Simmons,7/22/1990,wewfak@omundi.bg,(863) 403-5412
18,Gakpotgam,Hattie Norton,2/16/1956,vuje@ku.ae,(569) 396-5000
27,Vifiek,Madge Leonard,4/24/1966,hu@jo.ve,(220) 620-2485
31,Kijowce,Jonathan Arnold,6/10/1960,tatos@enuwerago.gt,(344) 236-5318
20,Nozsotupu,Ruth Dawson,7/28/1960,camjac@ifabetuw.se,(255) 663-4502
25,Cuzede,Bruce Fletcher,2/20/1990,seetsoz@nikilfaj.sd,(714) 710-4176
32,Kemmizlu,George Perez,1/29/1989,gug@oc.ao,(686) 844-1148
51,Jedfumlek,Jordan Allison,12/10/1978,ciozehe@eb.ao,(925) 602-6916
37,Ligelaj,Virginia Hines,4/26/1991,dicisij@tebuhoz.tm,(529) 883-3750
64,Socworad,Ruby Bowman,1/23/1991,odo@rid.gt,(382) 238-3292
25,Womtiksu,Dale Medina,11/16/1994,ahtacdi@fi.kw,(768) 751-5366
29,Pemikete,Blanche Tyler,11/8/1957,bof@kiepeava.lv,(710) 549-8859
48,Webobwoz,Eric Rowe,3/7/1996,wa@uci.kz,(258) 379-3693
30,Vinkuhez,Brett Johnson,7/4/1978,gen@huw.sk,(689) 416-4538
51,Johibez,Jayden Hudson,7/4/1973,uzlaziw@detu.dj,(937) 539-5934
37,Vanigtow,Bruce Stewart,10/28/1969,em@fazizu.jm,(248) 922-2769
38,Nocvujo,Myrtie Boyd,10/10/1958,da@ap.kh,(476) 992-9630
59,Tafkouno,Brett Cruz,1/10/1968,bo@nipmuwet.be,(567) 920-4566
23,Sobcovus,Isabelle Reed,4/1/1984,indozhat@ilrijuz.jo,(471) 644-4888
22,Wogwizoc,Isaiah Harrington,7/17/1968,rasripiba@ogolowum.bo,(423) 444-4046
42,Erupeblo,Marguerite Haynes,4/29/1958,sizom@ep.cd,(674) 685-1441
32,Sezpaewu,Evelyn Adams,12/27/1996,koc@bev.uy,(642) 778-2330
18,Hocteppus,Derek Frazier,12/11/1999,eg@pep.mx,(960) 285-2775
21,Hubibcel,Christopher Willis,4/10/1987,ijkol@idvik.hu,(584) 404-7229
53,Cesudera,Mabel Reid,8/3/1998,nunoccim@om.cv,(722) 437-5097
54,Zesgintap,Elijah Walters,10/6/1968,ico@vemokin.mt,(986) 491-1515
61,Lezcofbek,Ethan Schwartz,8/8/1993,duh@lebusja.vg,(611) 428-3281
52,Poefemun,Ellen Mills,8/11/1956,wi@bu.ps,(682) 743-8381
26,Vocoira,Louisa Fields,2/11/1961,kalummi@ulo.us,(859) 920-6195
52,Gotgaoso,Sarah Sandoval,5/16/1954,pawbava@ho.es,(255) 899-8904
26,Uhuafka,Connor Cruz,2/25/1957,tuducuzoz@nudre.bw,(588) 897-8512
29,Cubeut,Timothy Reed,12/15/1990,ravwuwi@vahefeco.co.uk,(254) 285-4681
50,Akkusi,Celia Hines,8/21/1976,nibsigko@giw.km,(526) 362-8066
27,Wavtase,Lois Allison,9/28/1969,ga@asifioco.gl,(246) 421-7142
53,Juksadi,Franklin Nichols,1/27/1963,ve@wocko.gb,(408) 838-5102
48,Nattuwup,Lela Bush,8/24/1994,puwel@wegugasim.cg,(607) 582-5679
63,Envasgu,Marie Walton,10/23/1980,cag@vo.us,(527) 340-6290
54,Nurcepu,Curtis Doyle,5/23/1956,gamun@kaf.sd,(906) 580-4444
30,Punvilvi,Emily Hill,9/10/1967,utfiba@ap.ly,(720) 462-5736
65,Muwunbis,Bryan Edwards,8/22/1977,moh@ef.sx,(209) 558-8357
24,Hadorod,Nathaniel Schultz,11/19/1990,upadev@jog.in,(226) 303-2310
31,Sumdejgef,Eliza Palmer,5/13/1986,be@diczizge.vu,(881) 567-1969
34,Zivene,Jimmy McGuire,10/8/1954,puwsebos@ze.gov,(906) 475-8215
22,Lahicu,Lillie Mack,5/16/1989,dekpajzi@kumi.sm,(629) 730-8435
30,Nifijoru,Nathan Pena,7/23/1975,ita@boztap.sj,(324) 842-7235
58,Jolzikek,Helen Pratt,2/19/1954,nuz@to.ca,(376) 452-5147
64,Tejbavre,Lucas Holland,8/21/1994,rebja@gidpabpa.sn,(917) 919-5137
33,Ijiletjuj,Iva Gilbert,2/4/1963,zu@jionelu.rw,(428) 626-8423
40,Unutawuke,Isaac Roberson,5/14/1986,kudirej@jaclotka.kr,(846) 380-8505
54,Wogidwo,Olive Newman,4/11/1987,vapela@segowsi.mp,(440) 723-2267
57,Fefubbal,Carrie Tyler,11/13/1969,sofeju@upike.zw,(808) 273-3311
37,Liahejur,Jorge Gordon,11/10/1996,wihhikos@panlaj.lr,(951) 851-7229
53,Najuwzus,Lydia Conner,10/12/1956,cojfociho@supbebecu.gr,(513) 480-1366
37,Uremelkik,Sara Moreno,5/8/1962,mu@vizaj.net,(800) 981-7158
63,Faoverak,Helena Rivera,11/24/1960,penu@nasned.ac,(583) 529-8399
45,Wovrenir,Wayne Bradley,10/6/1980,vow@zezovrur.pg,(902) 556-5272
65,Gisbeci,Martin Craig,7/19/1974,zabeguho@nenjajas.bj,(949) 818-2439
46,Lebicbi,Bernice Andrews,4/12/1991,kotta@uz.ky,(625) 251-2474
43,Kocajoj,Ann Carr,10/1/1969,piwev@fajfejfaz.kw,(854) 927-5836
27,Appeoge,Devin Marsh,1/10/1991,birjuvbul@tanewcap.tk,(555) 604-2582
18,Gamohvu,Erik Little,2/19/1961,vudoplum@omluhgej.dm,(427) 382-5567
27,Ojvepdo,Adelaide Lee,7/10/1970,sofic@par.gf,(211) 587-5988
53,Naknise,Lloyd Sutton,7/24/1989,cof@akocis.se,(735) 434-9285
60,Mevodez,Herman Phillips,4/25/1992,hi@cor.bv,(570) 587-3308
54,Cebimkam,Gilbert Armstrong,12/12/1996,efdug@bis.sr,(443) 543-1412
62,Omaduwmo,Hannah Shelton,6/23/1960,sepilhu@bajos.gi,(421) 989-7620
19,Jalucewo,Ronnie Harrison,10/12/1997,joaj@nalupwe.mw,(519) 645-2377
59,Danfopiz,Christopher Manning,8/21/1973,pulevdif@wiuwpu.tg,(402) 869-2634
21,Mafsice,Florence Silva,5/1/1969,keiju@cel.in,(952) 776-1532
52,Nibzuare,Todd Berry,12/30/1987,sig@halvebug.bb,(679) 888-3187
31,Obruni,Mina Watts,9/14/1980,hefla@ki.fm,(510) 948-4958
48,Getehoh,Ivan Sims,3/23/1959,gulkub@lagof.nf,(416) 215-6852
30,Lufollel,Louis Stanley,10/1/1987,ejki@cu.lr,(885) 428-1607
62,Pigoda,Chase McGuire,8/27/1965,kisedu@cuha.vu,(941) 940-8083
54,Wavuje,Bernice Larson,3/26/1963,imuw@om.ws,(413) 751-8673
37,Jopalciw,Elijah Elliott,5/9/1985,lo@wefnoru.hu,(312) 743-2534
59,Dagohmic,Joel Wallace,1/2/1985,siztobik@ohedovo.mm,(603) 770-1836
29,Buwewza,Hettie Henry,9/20/1996,og@meher.no,(787) 864-8175
57,Goatdin,Jeff Swanson,7/26/1977,ifaet@ecpansuh.nz,(622) 799-8645
32,Eruehfec,Carrie Holland,4/29/1998,fikocas@op.pr,(877) 310-8788
37,Nivigu,Ann Pope,6/1/1999,agepov@vudomho.je,(833) 495-9254
22,Agvipa,Jay Sharp,6/15/1999,amazo@deseboh.ms,(402) 708-5984
47,Onanicig,Cornelia Allison,2/24/1993,ce@camane.vc,(929) 608-3896
22,Ojuditi,Sallie Wallace,2/18/1956,vag@ujma.mg,(202) 686-6153
42,Gitauh,Viola Soto,1/23/1964,okado@birrevpus.gq,(431) 737-8183
27,Capirwuw,Isaiah Brewer,12/21/1956,milejfe@arpegol.td,(659) 761-5890
23,Ewocapwit,Rebecca Lyons,12/31/1998,we@pogla.gb,(417) 403-8406
51,Tisesopu,Maud Cook,8/1/1968,ipe@polepu.pg,(812) 457-9448
28,Biwohim,Adam Copeland,8/12/1993,wenu@bet.ga,(731) 776-5535
35,Cuogitat,Russell Fitzgerald,8/20/1958,gabuw@ihkervow.ro,(837) 353-8417
31,Zariwioh,Alan Romero,4/5/1997,jitajfe@og.tn,(474) 806-3787
54,Gumaco,Larry Thomas,9/12/1999,jolommup@isacegvuc.id,(659) 540-2804