,city,job_title,company_name,location,salary
0,Toronto,Junior Machine Learning Engineer / Data Scientist,Virtus Groups,"Toronto, ON","$85,000 - $95,000 a year"
1,Toronto,Data Analyst (Entry Level),Jarvis,"Toronto, ON",Nothing_found
2,Toronto,data scientist,Tiger Analytics Inc.,"Toronto, ON•Remote","$110,000 - $130,000 a year"
3,Toronto,Data/Business Intelligence Analyst (Remote),Mero,"Toronto, ON•Remote","$30,000 - $65,000 a year"
4,Toronto,Data Scientist,Chubb INA Holdings Inc.,"Toronto, ON",Nothing_found
5,Toronto,Data Scientist Intern (4 months),IBM,"Mississauga, ON",Nothing_found
6,Toronto,Data Scientist,Bolt Logistics,"Toronto, ON",Nothing_found
7,Toronto,Data Scientist,Altair Engineering,"Toronto, ON","$59,394 - $141,315 a year"
8,Toronto,Data Scientist,Equifax,"Toronto, ON",Nothing_found
9,Toronto,Data Scientist,IBI Group,"Toronto, ON",Nothing_found
10,Toronto,Data Scientist,Compass Digital Labs,"Greater Toronto Area, ON",Nothing_found
11,Toronto,Data Analyst,Bolt Logistics,"Toronto, ON",Nothing_found
12,Toronto,Data Scientist,CakeAI,"Toronto, ON",Nothing_found
13,Toronto,Data Scientist,Clarivate Analytics,"Toronto, ON",Nothing_found
14,Toronto,Data Scientist,Crescendo Technology Ltd.,"North York, ON+1 location•Temporarily Remote","$55,382 - $119,478 a year"
15,Toronto,Data Analyst,Bolt Logistics,"Toronto, ON",Nothing_found
16,Toronto,Data Scientist,Klick Health,"Toronto, ON",Nothing_found
17,Toronto,Data Scientist,Equifax,"Toronto, ON",Nothing_found
18,Toronto,Data Scientist,HomeStars,"Toronto, ON•Remote",Nothing_found
19,Toronto,Junior/Senior Data Scientist,TELUS,"Toronto, ON",Nothing_found
20,Toronto,Data Scientist,Viafoura,"Toronto, ON",Nothing_found
21,Toronto,Data Scientist,MSi Corp (Bell Canada),"Toronto, ON",Nothing_found
22,Toronto,Data & Analytics Intern (12 Months),BMW Group Canada,"Toronto, ON",Nothing_found
23,Toronto,Data Scientist - Biology,Deep Genomics,"Toronto, ON•Remote",Nothing_found
24,Toronto,Data Scientist,sharethrough,"Toronto, ON•Remote",Nothing_found
25,Toronto,Data Scientist 4,Oracle,"Toronto, ON",Nothing_found
26,Toronto,Data Scientist – IBM Garage – Summit 2022,IBM Canada,"Markham, ON",Nothing_found
27,Toronto,"Data Scientist, Advanced Analytics",Coca-Cola Canada Bottling Limited,"Toronto, ON•Remote",Nothing_found
28,Toronto,"Data Scientist, Algorithm Developer",Bresotec Medical,"Toronto, ON•Temporarily Remote",Nothing_found
29,Toronto,"Data Scientist, Quantitative Investments",RBC,"Toronto, ON",Nothing_found
30,Toronto,Data Scientist 4,Oracle,"Toronto, ON",Nothing_found
31,Toronto,Data Science Analyst (Remote),Yelp,"Toronto, ON•Remote",Nothing_found
32,Toronto,Manager - Data Analytics,Rogers Communications,"Toronto, ON•Temporarily Remote",Nothing_found
33,Toronto,Data Scientist - Biology,Deep Genomics,"Toronto, ON•Remote",Nothing_found
34,Toronto,"Data Scientist, NA Integrated Analytics (2022 New Grad – Toronto)",Munich RE,"Toronto, ON",Nothing_found
35,Toronto,Data Scientist (2021 Q4),Cerebri AI,"Toronto, ON",Nothing_found
36,Toronto,Data Scientist (Remote),Yelp,"Toronto, ON•Remote",Nothing_found
37,Toronto,Data Scientist,Paradigm Quest,"Toronto, ON",Nothing_found
38,Toronto,Data Analyst,Jerry,"Toronto, ON",Nothing_found
39,Toronto,Data Scientist,thinkCOMPASS,"Concord, ON",Nothing_found
40,Toronto,"Lead Data Scientist, Product Analytics",Salesforce,"Toronto, ON•Remote","$121,800 a year"
41,Toronto,Data Scientist,Spin Master Ltd,"Toronto, ON",Nothing_found
42,Toronto,Data Scientist/Engineer,TELUS,"Toronto, ON•Remote",Nothing_found
43,Toronto,Data Scientist,Zynga,"Toronto, ON•Temporarily Remote",Nothing_found
44,Toronto,Data Scientist - Innovation & Attributes,Equifax,"Toronto, ON",Nothing_found
45,Toronto,Data Scientist,Paradigm Quest,"Toronto, ON",Nothing_found
46,Toronto,Data Scientist [REMOTE],Viafoura Inc.,"Toronto, ON•Remote",Nothing_found
47,Toronto,"Lead Data Scientist, Product Analytics",Salesforce,"Toronto, ON•Remote","$121,800 a year"
48,Toronto,Data Scientist,CJR Wholesale Grocers Ltd. (Rabba WH Inc.),"Mississauga, ON",Nothing_found
49,Toronto,Data Scientist,Bolt,"Toronto, ON",Nothing_found
50,Toronto,Data Scientist,Spin Master Ltd,"Toronto, ON",Nothing_found
51,Toronto,Data Analyst,Validere Technologies,"Toronto, ON",Nothing_found
52,Toronto,Data Scientist,Fusemachines,"Toronto, ON•Remote",Nothing_found
53,Toronto,Senior Data Scientist,Interac,"Toronto, ON",Nothing_found
54,Toronto,Sr. Data Scientist - NLP,vidIQ,"Toronto, ON•Remote",Nothing_found
55,Toronto,"Analyst, Analytics & Insights",Equitable Bank,"Toronto, ON",Nothing_found
56,Toronto,The Bay | Data Scientist,Hudson's Bay,"Toronto, ON",Nothing_found
57,Toronto,Data Scientist (Data Tribe),Trader Corporation,"Toronto, ON",Nothing_found
58,Toronto,Data Scientist - Canada,Shift Technology,"Toronto, ON",Nothing_found
59,Toronto,Principal Research Data Scientist,Vanguard,"Toronto, ON",Nothing_found
60,Toronto,Machine Learning Scientist,Ada Inc.,"Toronto, ON",Nothing_found
61,Toronto,NITRO Data and AI specialist - Data Scientist,EY,"Toronto, ON",Nothing_found
62,Toronto,Data Scientist,Achievers,"Toronto, ON",Nothing_found
63,Toronto,Data Analyst 3,Zynga,"Toronto, ON•Temporarily Remote",Nothing_found
64,Toronto,Applied Scientist - Inference and Metrics (Remote),Yelp,"Toronto, ON•Remote",Nothing_found
65,Toronto,Data Scientist/Time Series,Scarsin,"Markham, ON",Nothing_found
66,Toronto,Data Scientist [REMOTE],Viafoura Inc.,"Toronto, ON•Remote",Nothing_found
67,Toronto,"ON - 2022 Customer Operations Graduate Leadership Program, BI Data Science & Developer Program",Bell Canada,"Toronto, ON",Nothing_found
68,Toronto,Data Scientist,Fusemachines,"Toronto, ON•Remote",Nothing_found
69,Toronto,Data Scientist,Moneris Solutions Corporation,"Etobicoke, ON",Nothing_found
70,Toronto,Data Scientist (Data Tribe),Trader Corporation,"Toronto, ON",Nothing_found
71,Toronto,Data Analyst Associate,EXL Services,"Toronto, ON",Nothing_found
72,Toronto,Principal Research Data Scientist,Vanguard,"Toronto, ON",Nothing_found
73,Toronto,Junior Machine Learning Engineer / Data Scientist,Virtus Groups,"Toronto, ON","$85,000 - $95,000 a year"
74,Toronto,Data Scientist,General Motors,"Markham, ON",Nothing_found
75,Toronto,Machine Learning Developer,Kinaxis,"Toronto, ON",Nothing_found
76,Toronto,Senior Data Analyst,BGIS,"Toronto, ON",Nothing_found
77,Toronto,"Analytics Consultant, Data Scientist",CNA Insurance Canada,"Toronto, ON•Temporarily Remote",Nothing_found
78,Toronto,Business Consultant - Customer 360 Analytics,TELUS,"Toronto, ON",Nothing_found
79,Toronto,Research Associate (Data Analyst) 1,"Cytel, Canada Health Inc","Toronto, ON",Nothing_found
80,Toronto,Data Analyst,Centro,"Toronto, ON",Nothing_found
81,Toronto,Data Scientist - Consultant/ Senior Consultant - Lighthouse,KPMG,"Toronto, ON",Nothing_found
82,Toronto,Data Scientist – Aviation/AI company – Remote position,Groom & Associes,"Toronto, ON",Nothing_found
83,Toronto,Data Scientist I,Levi Strauss & Co.,"Richmond Hill, ON",Nothing_found
84,Toronto,Director Consulting – Data & Analytics,Cognizant Technology Solutions,"Toronto, ON",Nothing_found
85,Toronto,Machine Learning Co-op (Winter),HomeX,"Toronto, ON•Remote",Nothing_found
86,Toronto,Staff Data Scientist,Loblaw Digital,"Toronto, ON",Nothing_found
87,Toronto,"Educator, Data Scientist",BrainStation,"Toronto, ON•Remote",Nothing_found
88,Toronto,Data Scientist,Lucky VR,"Toronto, ON•Remote",Nothing_found
89,Toronto,Data and Analytics Technologist,City of Richmond Hill,"Richmond Hill, ON","$67,376 - $79,250 a year"
90,Toronto,Machine Learning Co-op (Winter),HomeX,"Toronto, ON•Remote",Nothing_found
91,Toronto,Staff Data Scientist,Loblaw Digital,"Toronto, ON",Nothing_found
92,Toronto,"Educator, Data Scientist",BrainStation,"Toronto, ON•Remote",Nothing_found
93,Toronto,Data Scientist,Lucky VR,"Toronto, ON•Remote",Nothing_found
94,Toronto,Data and Analytics Technologist,City of Richmond Hill,"Richmond Hill, ON","$67,376 - $79,250 a year"
95,Toronto,Senior Data Scientist,Business Nexus,"Mississauga, ON•Remote",$65 - $90 an hour
96,Toronto,"Data Analyst, Life Reinsurance",CRC Group,"Toronto, ON",Nothing_found
97,Toronto,Senior Data Scientist Contractor,TELUS,"Toronto, ON",Nothing_found
98,Toronto,Data & Analytics Risk Officer (AI Technology & Machine Learning)),BMO Financial Group,"Toronto, ON",Nothing_found
99,Toronto,Senior Data Scientist - Engineering,Capital One,"Toronto, ON",Nothing_found
100,Toronto,Data Scientist,407 ETR,"Woodbridge, ON",Nothing_found
101,Toronto,"Senior Data Scientist (GANs) TORONTO, ONTECHNOLOGY – SOFTWARE",Tonal,"Toronto, ON•Remote",Nothing_found
102,Toronto,Senior Data Analyst,Horizon Studios Inc.,"Toronto, ON",Nothing_found
103,Toronto,"Analyst, Data Science",Environics Analytics,"Toronto, ON",Nothing_found
104,Toronto,"Manager, Customer Universe & Promo Analytics",Canadian Tire,"Toronto, ON",Nothing_found
105,Toronto,"Senior Consultant, Modern BI and Data Visualization",EY,"Toronto, ON",Nothing_found
106,Toronto,Senior Data Scientist,Veeva Systems,"Toronto, ON•Remote",Nothing_found
107,Toronto,"Manager, Data Science",Cineplex Digital Media,"Toronto, ON",Nothing_found
108,Toronto,Senior Data Science Specialist GEMINI,St. Michael's Hospital,"Toronto, ON",Nothing_found
109,Toronto,Partner - Customer Analytics,KANTAR,"Toronto, ON•Remote",Nothing_found
110,Toronto,Data Scientist / Senior Data Scientist,StackAdapt,"Toronto, ON•Remote",Nothing_found
111,Toronto,Graduate Research Intern (Machine Learning),Deep Genomics,"Toronto, ON",Nothing_found
112,Toronto,Director- Data Strategy & Analytics,Munich RE,"Toronto, ON",Nothing_found
113,Toronto,Machine Learning Engineer,Prompta Inc.,"Toronto, ON•Temporarily Remote","$68,000 a year"
114,Toronto,Machine Learning & Computer Vision,Intelense,"Markham, ON•Temporarily Remote","$48,580 - $70,000 a year"
115,Toronto,Lead Data Scientist,Validere Technologies,"Toronto, ON",Nothing_found
116,Toronto,"Data Engineer - Informatica Data Quality, Omnia AI",Deloitte,"Toronto, ON",Nothing_found
117,Toronto,Data Analytics Consultant,GINQO Consulting,"Toronto, ON",Nothing_found
118,Toronto,Data Scientist – Search (Contract),Getty Images,"Toronto, ON",Nothing_found
119,Toronto,Data Scientist - Commercial Analytics,Veeva Systems,"Toronto, ON•Remote",Nothing_found
120,Toronto,Associate/Sr. Associate - Data Science,Tredence,"Toronto, ON",Nothing_found
121,Toronto,Chief Data Scientist,Moonshot Brands,"Toronto, ON•Remote",Nothing_found
122,Toronto,Staff Data Scientist,[24]7.ai,"Toronto, ON",Nothing_found
123,Toronto,Intern - AI/Deep Learning,"Deeplite, Inc.","Toronto, ON",Nothing_found
124,Toronto,Senior Data Science Specialist GEMINI,St. Michael's Hospital,"Toronto, ON",Nothing_found
125,Toronto,Senior Data Scientist - Engineering,Capital One,"Toronto, ON",Nothing_found
126,Toronto,"Director, Data Analytics",Teranet,"Toronto, ON",Nothing_found
127,Toronto,Analytics Engineer,Forma.ai,"Toronto, ON",Nothing_found
128,Toronto,CT Data Engineer I - Power BI,EY,"Toronto, ON",Nothing_found
129,Toronto,Senior Data Analyst,League Inc,"Toronto, ON•Remote",Nothing_found
130,Toronto,Director- Data Strategy & Analytics,HSB BI&I,"Toronto, ON",Nothing_found
131,Toronto,Senior Data Scientist,RBC,"Toronto, ON",Nothing_found
132,Toronto,Technical Architect (Data Scientist),TES - The Employment Solution,"Toronto, ON",Nothing_found
133,Toronto,Data Scientist II,Vanguard,"Toronto, ON",Nothing_found
134,Toronto,Data Science Instructor,Juno College of Technology,"Toronto, ON•Remote","$70,000 - $85,000 a year"
135,Toronto,Data Science Instructor,Juno College of Technology,"Toronto, ON•Remote","$70,000 - $85,000 a year"
136,Toronto,Lead Data Scientist,Kainos,"Toronto, ON",Nothing_found
137,Toronto,Analytics Consultant,Advanced Analytics and Research Lab (AAARL),"Toronto, ON",Nothing_found
138,Toronto,"Director, Business Data Analytics",Northbridge Financial Corporation,"Toronto, ON•Remote",Nothing_found
139,Toronto,Data Scientist - Commercial Analytics,Veeva Systems,"Toronto, ON•Remote",Nothing_found
140,Toronto,Director of Data Science & Analytics,Bolt Logistics,"Toronto, ON",Nothing_found
141,Toronto,Decision Analytics Associate - Intern (U of Toronto PEY),ZS,"Toronto, ON",Nothing_found
142,Toronto,Analytics Client Lead and Development,Advanced Analytics and Research Lab (AAARL),"Toronto, ON•Remote","$3,500 a month"
143,Toronto,"Sr. Manager, Commercial Analytics",McCain Foods (Canada),"Toronto, ON",Nothing_found
144,Toronto,"Senior Consultant, Modern BI and Data Visualization",EY,"Toronto, ON",Nothing_found
145,Toronto,"Software Engineer, Machine Learning",Winterlight Labs,"Toronto, ON",Nothing_found
146,Toronto,"Manager, Data Science, HEF Credit Strategy",RBC,"Toronto, ON",Nothing_found
147,Toronto,Machine Learning Developer (English Services),CBC/Radio-Canada,"Toronto, ON",Nothing_found
148,Toronto,Data Scientist - Machine Learning Engineer Sports Betting,Staffinity Inc.,"Toronto, ON","$85,000 - $140,000 a year"
149,Toronto,"Director, Data Science",Cardinal Path,"Toronto, ON",Nothing_found
150,Vancouver,Data Scientist,36Eight Technologies,"Vancouver, BC•Remote",Nothing_found
151,Vancouver,Data Scientist,Canexia Health Inc.,"Vancouver, BC•Remote","$53,348 - $129,295 a year"
152,Vancouver,Machine Learning Scientist,Variational AI Inc.,"Vancouver, BC•Remote","$100,000 - $175,000 a year"
153,Vancouver,Data Scientist,Empower Operations,"Vancouver, BC•Remote","$50,000 - $70,000 a year"
154,Vancouver,Senior Data Scientist - RACE21,Teck Resources Limited,"Vancouver, BC",Nothing_found
155,Vancouver,data scientist,BluVec Technologies INC,"Burnaby, BC","$70,000 - $120,000 a year"
156,Vancouver,Data Scientist - Data Analytics,TELUS,"Vancouver, BC",Nothing_found
157,Vancouver,Data Scientist,TELUS,"Vancouver, BC",Nothing_found
158,Vancouver,Data Scientist,Providence Health Care,"Vancouver, BC",Nothing_found
159,Vancouver,Data Scientist (Coop),Ecoation,"Vancouver, BC",Nothing_found
160,Vancouver,Data Scientist,Simon Fraser University,"Burnaby, BC•Remote","$55,000 - $90,000 a year"
161,Vancouver,Data Scientist,Seaspan Ship Management Ltd.,"Vancouver, BC",Nothing_found
162,Vancouver,Data Scientist,Northland,"Vancouver, BC",Nothing_found
163,Vancouver,Senior Machine Learning Engineer / Data Scientist,Virtus Groups,"Vancouver, BC","$115,000 - $125,000 a year"
164,Vancouver,Simulation Data Scientist,Recruiting From Scratch,"Vancouver, BC•Remote",Nothing_found
165,Vancouver,Junior Machine Learning Scientist,Ecoation,"North Vancouver, BC",Nothing_found
166,Vancouver,Data Science Intern,BOEING,"Vancouver, BC•Remote",Nothing_found
167,Vancouver,Senior Data & Applied Scientist,Microsoft,"Vancouver, BC",Nothing_found
168,Vancouver,Data Scientist,Kabam,"Vancouver, BC",Nothing_found
169,Vancouver,Data & Applied Scientist,Microsoft,"Vancouver, BC",Nothing_found
170,Vancouver,Data Scientist,Lightspark,"Vancouver, BC",Nothing_found
171,Vancouver,Vancouver - R&D Data Scientist,Rubicon HR Canada,"Vancouver, BC","$70,000 - $80,000 a year"
172,Vancouver,Data Scientist,Plenty of Fish,"Vancouver, BC",Nothing_found
173,Vancouver,Data Scientist,Vancouver Coastal Health,"Vancouver, BC",Nothing_found
174,Vancouver,Data Scientist,OMICRON CANADA INC.,"Vancouver, BC",Nothing_found
175,Vancouver,Sr. Data Scientist - NLP,vidIQ,"Vancouver, BC•Remote",Nothing_found
176,Vancouver,Data Analyst - FIFA,Electronic Arts,"Vancouver, BC",Nothing_found
177,Vancouver,Senior Data Scientist,Visier Inc.,"Vancouver, BC",Nothing_found
178,Vancouver,Data & Applied Scientist - Gears of War - The Coalition,Microsoft,"Vancouver, BC",Nothing_found
179,Vancouver,Sr Business Insights Analyst/Data Scientist,Workday,"Vancouver, BC",Nothing_found
180,Vancouver,Data Scientist & Data Engineer,Decipher Biosciences,"Vancouver, BC",Nothing_found
181,Vancouver,Artificial Intelligence Scientist (Data scientist),Evidinno Outcomes Research Inc.,"Vancouver, BC•Temporarily Remote",Nothing_found
182,Vancouver,"Associate Educator, Data Scientist",BrainStation,"Vancouver, BC•Remote",Nothing_found
183,Vancouver,Data Scientist II,3v Geomatics,"Vancouver, BC",Nothing_found
184,Vancouver,Senior Data Scientist,Microsoft,"Vancouver, BC",Nothing_found
185,Vancouver,"Educator, Data Scientist",BrainStation,"Vancouver, BC•Remote",Nothing_found
186,Vancouver,Data Scientist,Canexia Health,"Vancouver, BC•Remote",Nothing_found
187,Vancouver,Data Scientist & Product Owner,TELUS International,"Vancouver, BC",Nothing_found
188,Vancouver,Senior Data Scientist - Speech Recognition,Global Relay,"Vancouver, BC",Nothing_found
189,Vancouver,Machine Learning Developer (Co-op),Global Relay,"Vancouver, BC",Nothing_found
190,Vancouver,Quality Data Analyst,Vancouver Shipyards,"North Vancouver, BC",Nothing_found
191,Vancouver,Data Scientist - RUL,Finning International Inc.,"Vancouver, BC",Nothing_found
192,Vancouver,Junior Data Scientist,Providence Health Care,"Vancouver, BC",Nothing_found
193,Vancouver,Data Analyst,Doctors of BC,"Vancouver, BC",Nothing_found
194,Vancouver,Data Analyst,Gateway Casinos Corporate Office,"Burnaby, BC",Nothing_found
195,Vancouver,Senior Applied Data Scientist,Microsoft,"Vancouver, BC",Nothing_found
196,Vancouver,Senior Data Scientist (Remote),HomeStars,"Vancouver, BC•Remote",Nothing_found
197,Vancouver,Senior Data Scientist - NLP,Global Relay,"Vancouver, BC",Nothing_found
198,Vancouver,Data Analyst,Doctors of BC,"Vancouver, BC",Nothing_found
199,Vancouver,Business/Data Analyst,Noise,"Vancouver, BC",Nothing_found
200,Vancouver,Applied Scientist - Inference and Metrics (Remote),Yelp,"Vancouver, BC•Remote",Nothing_found
201,Vancouver,Machine Learning Developer (Co-op),Global Relay,"Vancouver, BC",Nothing_found
202,Vancouver,Data Scientist – Antibody Assessment,AbCellera,"Vancouver, BC",Nothing_found
203,Vancouver,Senior Data Scientist,MasterCard,"Vancouver, BC•Temporarily Remote",Nothing_found
204,Vancouver,Senior Data Scientist,Kabam,"Vancouver, BC",Nothing_found
205,Vancouver,Data & Analytics - Senior Data Analyst,Aritzia,"Vancouver, BC",Nothing_found
206,Vancouver,"Data Engineer, Machine Learning",AbCellera Biologics,"Vancouver, BC",Nothing_found
207,Vancouver,Applied Scientist II - ADCC-V4587,Amazon Dev Centre Canada ULC,"Vancouver, BC","$133,900 - $223,500 a year"
208,Vancouver,Intermediate Data Analyst,ZE Power Group,"Richmond, BC",Nothing_found
209,Vancouver,Data Scientist,Awakedata,"Burnaby, BC",Nothing_found
210,Vancouver,Data Scientist,Awakedata,"Burnaby, BC",Nothing_found
211,Vancouver,"Data Engineer, Machine Learning",AbCellera Biologics,"Vancouver, BC",Nothing_found
212,Vancouver,Sr. Data Scientist,Skillz Inc.,"Vancouver, BC",Nothing_found
213,Vancouver,Senior Computer Vision & Machine Learning Applied Scientist,Prenuvo,"Vancouver, BC",Nothing_found
214,Vancouver,"Data Engineer, Machine Learning",AbCellera,"Vancouver, BC",Nothing_found
215,Vancouver,Machine Learning Engineer,Bluvec Technologies Inc.,"Burnaby, BC","$70,000 - $120,000 a year"
216,Vancouver,Applied Scientist II - ADCC-V4587,Amazon Dev Centre Canada ULC,"Vancouver, BC","$133,900 - $223,500 a year"
217,Vancouver,"Staff Consultant, Data Science",Cardinal Path,"Vancouver, BC",Nothing_found
218,Vancouver,"Analyst, Analytics & Insights (Impact Value Stream) (Remote)",World Vision Canada,"Vancouver, BC•Remote",Nothing_found
219,Vancouver,"Senior Consultant, Data Science",Cardinal Path,"Vancouver, BC",Nothing_found
220,Vancouver,Sr Data Analyst - DRE,Electronic Arts,"Vancouver, BC",Nothing_found
221,Vancouver,Applied Scientist - Machine Learning,Microsoft,"Vancouver, BC",Nothing_found
222,Vancouver,Sales & Operations Planning Senior Analyst,Lululemon,"Vancouver, BC",Nothing_found
223,Vancouver,Senior Machine Learning Engineer / Data Scientist,Virtus Groups,"Vancouver, BC","$115,000 - $125,000 a year"
224,Vancouver,Machine Learning Engineer,Variational AI,"Vancouver, BC•Remote",Nothing_found
225,Vancouver,Data & Analytics - Software Engineering Manager,Aritzia,"Vancouver, BC",Nothing_found
226,Vancouver,"Director, Analytics - SKATE",Electronic Arts,"Vancouver, BC",Nothing_found
227,Vancouver,Senior Data Analyst,Unbounce,"Vancouver, BC",Nothing_found
228,Vancouver,"Director, Data Science",Cardinal Path,"Vancouver, BC",Nothing_found
229,Vancouver,Senior Data Analyst - DTS Analytics,Electronic Arts,"Vancouver, BC",Nothing_found
230,Vancouver,Machine Learning Geoscientist,DATACLOUD,"Vancouver, BC•Remote",Nothing_found
231,Vancouver,Software Developer – Environmental Data Analytics,Hatfield Consultants,"Vancouver, BC",Nothing_found
232,Vancouver,Protein Engineer – Applied Scientist,AbCellera,"Vancouver, BC",Nothing_found
233,Vancouver,Machine Learning Engineer - DeviantArt,Wix,"Vancouver, BC",Nothing_found
234,Vancouver,Applied Scientist,LUCID Vision Labs,"Richmond, BC",Nothing_found
235,Vancouver,Data & Analytics - Senior Analytics Engineer,Aritzia,"Vancouver, BC",Nothing_found
236,Vancouver,"Vancouver - R&D Researcher (AI, ML)",Rubicon HR Canada,"Vancouver, BC","$85,000 - $100,000 a year"
237,Vancouver,Protein Engineer – Applied Scientist,AbCellera Biologics,"Vancouver, BC",Nothing_found
238,Vancouver,"Senior Data Scientist, Intact Lab (West)",Intact,"Vancouver, BC•Remote",Nothing_found
239,Vancouver,"Senior Software Developer - Machine Learning, Voice Analytics",Global Relay,"Vancouver, BC",Nothing_found
240,Vancouver,Senior Data Analyst,Electronic Arts,"Vancouver, BC",Nothing_found
241,Vancouver,Data Analyst - NHL,Electronic Arts,"Vancouver, BC",Nothing_found
242,Vancouver,Software Engineer - Machine Learning (Remote),Yelp,"Vancouver, BC•Remote",Nothing_found
243,Vancouver,Senior Statistician,PHSA,"Vancouver, BC",Nothing_found
244,Vancouver,Data Science Manager - NLP Expert,SKAEL,"Vancouver, BC•Remote",Nothing_found
245,Vancouver,"Senior Software Developer - Machine Learning, Voice Analytics",Global Relay,"Vancouver, BC",Nothing_found
246,Vancouver,"Product Owner Business Intelligence, Payments Modernization",Central 1 Credit Union,"Vancouver, BC",Nothing_found
247,Vancouver,"21-92 Leader, Research and Data Science",Technical Safety BC,"Vancouver, BC",Nothing_found
248,Vancouver,"Director, Data Strategy and Analytics",Bold Commerce,"Vancouver, BC",Nothing_found
249,Vancouver,Machine Learning Engineer,Microsoft,"Vancouver, BC",Nothing_found
250,Vancouver,Software Engineer (Machine Learning),Microsoft,"Vancouver, BC",Nothing_found
251,Vancouver,"Data Visualization and Power BI, Senior/Manager",EY,"Vancouver, BC",Nothing_found
252,Vancouver,Machine Learning Engineer,MobSquad,"Vancouver, BC•Remote",Nothing_found
253,Vancouver,Machine Learning Engineering Lead,TalentSphere Staffing Solutions,"Vancouver, BC•Remote",Nothing_found
254,Vancouver,Fullstack Software Development Engineer (Talent Optimization Machine Learning),Workday,"Vancouver, BC",Nothing_found
255,Vancouver,Machine Learning Engineer,Motion Metrics International Corp.,"Vancouver, BC",Nothing_found
256,Vancouver,Fullstack Software Development Engineer (Talent Optimization Machine Learning),Workday,"Vancouver, BC",Nothing_found
257,Vancouver,Software Engineer (Machine Learning),Microsoft,"Vancouver, BC",Nothing_found
258,Vancouver,Machine Learning Engineer,Microsoft,"Vancouver, BC",Nothing_found
259,Vancouver,Researcher - Machine Learning,1QBit,"Vancouver, BC",Nothing_found
260,Vancouver,"Product Owner Business Intelligence, Payments Modernization",Central 1 Credit Union,"Vancouver, BC",Nothing_found
261,Vancouver,Senior Software Engineer (Geospatial Data Science),EarthDaily Analytics,"Vancouver, BC",Nothing_found
262,Vancouver,"Software Engineer, Machine Learning Platform","Grammarly, Inc.","Vancouver, BC•Remote",Nothing_found
263,Vancouver,Machine Learning Developer,Fortinet,"Burnaby, BC",Nothing_found
264,Vancouver,Senior Marketing Data Analyst (NBA Top Shot),CryptoKitties,"Vancouver, BC",Nothing_found
265,Vancouver,"Software Engineering Manager, Machine Learning and Analytics",Global Relay,"Vancouver, BC",Nothing_found
266,Vancouver,Senior Data Analyst,TalentSphere Staffing Solutions,"Vancouver, BC",Nothing_found
267,Vancouver,Enterprise Data Architect,Ledcor,"Vancouver, BC",Nothing_found
268,Vancouver,Data Science II,Microsoft,"Vancouver, BC",Nothing_found
269,Vancouver,Sr. Machine Learning Engineer,Workday,"Vancouver, BC",Nothing_found
270,Vancouver,"Product Manager, Augmented Analytics",Tableau,"Vancouver, BC",Nothing_found
271,Vancouver,Senior Machine Learning Engineer (R&D),Kabam,"Vancouver, BC",Nothing_found
272,Vancouver,Lead Machine Learning Software Engineer,Prenuvo,"Vancouver, BC",Nothing_found
273,Vancouver,"Intermediate Software Developer - Machine Learning, Voice Analytics",Global Relay,"Vancouver, BC",Nothing_found
274,Vancouver,Senior Machine Learning Engineer (Central-Tech),Kabam,"Vancouver, BC",Nothing_found
275,Vancouver,Senior Software Engineer (Machine Learning),Microsoft,"Vancouver, BC",Nothing_found
276,Vancouver,"Product Manager, Augmented Analytics",Salesforce,"Vancouver, BC",Nothing_found
277,Vancouver,"Senior Software Developer, Machine Learning, AI@Unity",Unity Technologies,"Vancouver, BC",Nothing_found
278,Vancouver,Lead Machine Learning Engineer,Patriot One Technologies,"Vancouver, BC",Nothing_found
279,Vancouver,Senior Software Engineer (NLP) (Remote Friendly),Galvanize,"Vancouver, BC•Remote",Nothing_found
280,Vancouver,Machine Learning Engineering Lead,TalentSphere Staffing Solutions,"Vancouver, BC•Remote",Nothing_found
281,Vancouver,Machine Learning Engineer Lead,Patriot One Technologies,"Vancouver, BC",Nothing_found
282,Vancouver,Software Developer (Deep Learning),PDFTron Systems Inc.,"Vancouver, BC•Remote",Nothing_found
283,Vancouver,Machine Learning Engineer,Laivly,"Vancouver, BC•Remote",Nothing_found
284,Vancouver,Sr Software Development Engineer (Talent Optimization Machine Learning),Workday,"Vancouver, BC",Nothing_found
285,Vancouver,Senior Machine Learning Engineer (R&D),Kabam,"Vancouver, BC",Nothing_found
286,Vancouver,Senior Software Engineer (Machine Learning),Microsoft,"Vancouver, BC",Nothing_found
287,Vancouver,Senior Software Engineer (NLP) (Remote Friendly),Galvanize,"Vancouver, BC•Remote",Nothing_found
288,Vancouver,Senior Machine Learning Engineer (Central-Tech),Kabam,"Vancouver, BC",Nothing_found
289,Vancouver,Lead Machine Learning Engineer,Patriot One Technologies,"Vancouver, BC",Nothing_found
290,Vancouver,"Senior Software Developer, Machine Learning, AI@Unity",Unity Technologies,"Vancouver, BC",Nothing_found
291,Vancouver,"Product Manager, Augmented Analytics",Salesforce,"Vancouver, BC",Nothing_found
292,Vancouver,"Intermediate Software Developer - Machine Learning, Voice Analytics",Global Relay,"Vancouver, BC",Nothing_found
293,Vancouver,Machine Learning Engineer Lead,Patriot One Technologies,"Vancouver, BC",Nothing_found
294,Vancouver,Software Developer (Deep Learning),PDFTron Systems Inc.,"Vancouver, BC•Remote",Nothing_found
295,Vancouver,Machine Learning Engineer,Laivly,"Vancouver, BC•Remote",Nothing_found
296,Vancouver,Senior Machine Learning Engineer / Data Scientist,Virtus Groups,"Vancouver, BC","$115,000 - $125,000 a year"
297,Vancouver,Sr Software Development Engineer (Talent Optimization Machine Learning),Workday,"Vancouver, BC",Nothing_found
298,Vancouver,Senior Machine Learning Engineer,Laivly,"Vancouver, BC",Nothing_found
299,Vancouver,Senior Machine Learning Infrastructure Software Engineer,PressReader,"Richmond, BC•Remote",Nothing_found
300,Montreal,Data Scientist,BRP,"Montréal, QC",Nothing_found
301,Montreal,Senior Actuarial Analyst/Data Scientist,(AI)RM Consulting Ltd.,"Montréal, QC•Remote","$94,000 - $154,000 a year"
302,Montreal,Analytics Data Scientist,BrainFinance,"Montréal, QC•Temporarily Remote","$70,000 - $85,000 a year"
303,Montreal,data scientist,ASTEK Canada Inc.,"Montréal, QC•Remote","$60,000 a year"
304,Montreal,Data Scientist Intern,DRW,"Montréal, QC",Nothing_found
305,Montreal,Canada / Data Engineer/Scientist,Neoxia,"Montréal, QC","$55,000 - $65,000 a year"
306,Montreal,Analyste Intelligence d'affaires (data scientist),SAQ - Société des Alcools du Québec,"Montréal, QC",Nothing_found
307,Montreal,Data Scientist (Remote),FlexPay,"Montréal, QC•Remote",Nothing_found
308,Montreal,Montreal - R&D Data Scientist,Rubicon HR Canada,"Montréal, QC","$70,000 - $80,000 a year"
309,Montreal,Data Scientist,3E,"Montréal, QC",Nothing_found
310,Montreal,Data Scientist Rotation Program,National Bank of Canada,"Montréal, QC",Nothing_found
311,Montreal,Data Scientist – Delta One Strats,Morgan Stanley,"Montréal, QC",Nothing_found
312,Montreal,Data Scientist,Phyla,"Montréal, QC•Remote","$80,000 - $110,000 a year"
313,Montreal,Data Scientist,Aviva,"Montréal, QC•Remote",Nothing_found
314,Montreal,Data Science Intern,"Analysis Group, Inc.","Montréal, QC",Nothing_found
315,Montreal,Data Scientist,Morgan Stanley,"Montréal, QC",Nothing_found
316,Montreal,Data Scientist,MSi Corp (Bell Canada),"Montréal, QC",Nothing_found
317,Montreal,Data scientist,Koïos Intelligence,"Montréal, QC",Nothing_found
318,Montreal,Data Scientist,sharethrough,"Montréal, QC•Remote",Nothing_found
319,Montreal,Data Science Intern,"Analysis Group, Inc.","Montréal, QC",Nothing_found
320,Montreal,Scientifique des données / Data Scientist,Ericsson,"Saint-Laurent, QC",Nothing_found
321,Montreal,Life Time Value Data Scientist,MindGeek Careers,"Montréal, QC",Nothing_found
322,Montreal,Stagiaire Scientifique de données / Data Scientist Intern,Square Enix Montréal,"Montréal, QC",Nothing_found
323,Montreal,Associate Data Scientist,TouchTunes,"Montréal, QC•Temporarily Remote",Nothing_found
324,Montreal,"Data Scientist, Ads Unit / Scientifique de données, Ads Unit",Unity Technologies,"Montréal, QC",Nothing_found
325,Montreal,Data Scientist - Canada,Shift Technology,"Montréal, QC",Nothing_found
326,Montreal,Data Scientist,Peritus.ai,"Montréal, QC",Nothing_found
327,Montreal,Data Scientist – Automated Market Making Team,Morgan Stanley,"Montréal, QC",Nothing_found
328,Montreal,Data Scientist,Brain Finance,"Montréal, QC",Nothing_found
329,Montreal,Applied Research Scientist,Lallemand,"Montréal, QC",Nothing_found
330,Montreal,Data scientist,Koïos Intelligence,"Montréal, QC",Nothing_found
331,Montreal,"Data Scientist, Ads Unit / Scientifique de données, Ads Unit",Unity Technologies,"Montréal, QC",Nothing_found
332,Montreal,Data Scientist,MHI RJ Aviation Canada,"Montréal, QC",Nothing_found
333,Montreal,Data Scientist,Morgan Stanley,"Montréal, QC",Nothing_found
334,Montreal,Data Scientist,BRP,"Montréal, QC",Nothing_found
335,Montreal,Associate Data Scientist,TouchTunes,"Montréal, QC•Temporarily Remote",Nothing_found
336,Montreal,Canada / Stage Data Engineer/Scientist H/F,Neoxia,"Montréal, QC","$45,000 - $55,000 a year"
337,Montreal,Pricing Data Scientist,Sonder,"Montréal, QC",Nothing_found
338,Montreal,Machine Learning & Cloud Designer Summer Intern,ALÉO Canada,"Montréal, QC",Nothing_found
339,Montreal,Product Data Scientist,District M,"Montréal, QC",Nothing_found
340,Montreal,"QC - 2022 Customer Operations Graduate Leadership Program, BI Data Science & Developer Program",Bell Canada,"Montréal, QC",Nothing_found
341,Montreal,Intern -- Research and Technology Applied AI (Artificial Intelligence) Scientist,Thales Group,"Montréal, QC",Nothing_found
342,Montreal,Research Data Scientist | Scientifique chargé des données de recherche,Facebook,"Montréal, QC",Nothing_found
343,Montreal,Product Data Scientist,sharethrough,"Montréal, QC•Remote",Nothing_found
344,Montreal,Data Scientist - Canada,Shift Technology,"Montréal, QC",Nothing_found
345,Montreal,Data Scientist,Brain Finance,"Montréal, QC",Nothing_found
346,Montreal,Machine Learning Engineer,spruceinfotech,"Montréal, QC",Nothing_found
347,Montreal,Chercheur Scientifique Stagiaire NLP (Hiver 2022) - NLP Research Scientist Intern (Winter 2022),Nuance,"Montréal, QC",Nothing_found
348,Montreal,Data Scientist,Peritus.ai,"Montréal, QC",Nothing_found
349,Montreal,Data Scientist,"Analysis Group, Inc.","Montréal, QC",Nothing_found
350,Montreal,Energy and Sustainability Data Analyst,BGIS,"Montréal, QC",Nothing_found
351,Montreal,Senior Data scientist / Scientifique de données sénior,Unity Technologies,"Montréal, QC",Nothing_found
352,Montreal,Lead Data Scientist,AddEnergie,"Montréal, QC",Nothing_found
353,Montreal,Data Science Manager,Zesty.ai,"Montréal, QC",Nothing_found
354,Montreal,"Vice President, Head of Analytics",Fairstone,"Montréal, QC•Temporarily Remote",Nothing_found
355,Montreal,Senior Data Scientist ML & NLP expert,SITA,"Montréal, QC",Nothing_found
356,Montreal,Stagiaire en recherche− Apprentissage profond et langue / Research Intern - Deep Learning & Language,Microsoft,"Montréal, QC",Nothing_found
357,Montreal,Machine Learning Engineer Intern-1,Thales Group,"Montréal, QC",Nothing_found
358,Montreal,Data Science Teacher Intern,Korbit Technologies Inc.,"Montréal, QC•Temporarily Remote",$18 an hour
359,Montreal,Machine Learning Programmer (Technology Group),Ubisoft,"Montréal, QC",Nothing_found
360,Montreal,Senior Data Scientist,Société Générale,"Montréal, QC",Nothing_found
361,Montreal,"Machine Learning Engineer, Physics-based Machine Learning",Corning,"Montréal, QC",Nothing_found
362,Montreal,Senior Data Science Manager,Shopify,"Montréal, QC",Nothing_found
363,Montreal,Deep Learning Engineer,"Deeplite, Inc.","Montréal, QC",Nothing_found
364,Montreal,"Analyst, Analytics & Insights (Impact Value Stream) (Remote)",World Vision Canada,"Montréal, QC•Remote",Nothing_found
365,Montreal,"Analyst, Analytics & Insights (Impact Value Stream) (Remote)",World Vision Canada,"Montréal, QC•Remote",Nothing_found
366,Montreal,"Machine Learning Developer Intern, Labs / Développeur(euse) en apprentissage automatique, stagiaire, Labs",Unity Technologies,"Montréal, QC",Nothing_found
367,Montreal,Senior Data Scientist,Société Générale,"Montréal, QC",Nothing_found
368,Montreal,Deep Learning Engineer,"Deeplite, Inc.","Montréal, QC",Nothing_found
369,Montreal,"Vice President, Head of Analytics",Fairstone,"Montréal, QC•Temporarily Remote",Nothing_found
370,Montreal,Linguistic Data Analyst,Getty Images,"Montréal, QC•Temporarily Remote",Nothing_found
371,Montreal,Machine Learning Developer,My Intelligent Machines,"Montréal, QC",Nothing_found
372,Montreal,Senior Data Analyst,National Bank of Canada,"Montréal, QC",Nothing_found
373,Montreal,Software Engineer - Machine Learning,Maxa AI,"Montréal, QC•Temporarily Remote","$62,571 - $132,620 a year"
374,Montreal,BI Developer,Ubisoft,"Montréal, QC",Nothing_found
375,Montreal,NLP/ML Developer,My Intelligent Machines,"Montréal, QC",Nothing_found
376,Montreal,Data Scientist – IBM Garage – Summit 2022 (Montreal),IBM Canada,"Montréal, QC",Nothing_found
377,Montreal,Senior Data Analyst,RBC,"Montréal, QC",Nothing_found
378,Montreal,Senior Machine Learning Scientist,Recursion,"Montréal, QC",Nothing_found
379,Montreal,Data Scientist,ei3 Corporation,"Montréal, QC",Nothing_found
380,Montreal,BI Developer,Ubisoft,"Montréal, QC",Nothing_found
381,Montreal,NLP Scientist – Quantitative Research,Morgan Stanley,"Montréal, QC",Nothing_found
382,Montreal,"Machine Learning Developer Intern, Labs / Développeur(euse) en apprentissage automatique, stagiaire, Labs",Unity Technologies,"Montréal, QC",Nothing_found
383,Montreal,Stagiaire Programmeur·euse IA & Apprentissage automatique / AI & Machine Learning Programmer Intern,Eidos Montréal,"Montréal, QC",Nothing_found
384,Montreal,Senior Machine Learning Scientist,Recursion,"Montréal, QC",Nothing_found
385,Montreal,Staff Machine Learning Developer (AI Platform Middleware and Data) - ATG,ServiceNow,"Montréal, QC",Nothing_found
386,Montreal,"Machine Learning Software Developer, Intact Lab",Intact,"Montréal, QC•Remote",Nothing_found
387,Montreal,Deep Learning Software Engineer,"Deeplite, Inc.","Montréal, QC",Nothing_found
388,Montreal,Applied Machine Learning Researcher,Morgan Stanley,"Montréal, QC",Nothing_found
389,Montreal,VIE - Consultant Data Science H/F,Sia Partners,"Montréal, QC",Nothing_found
390,Montreal,Schneider Stage : Data science et Robot Process Automation (Hiver 2022),Schneider Electric,"Brossard, QC",Nothing_found
391,Montreal,Scientifique de données Senior / Data Scientist Senior,Square Enix Montréal,"Montréal, QC",Nothing_found
392,Montreal,Research Software Developer - Machine Learning,Circle Cardiovascular Imaging Inc.,"Montréal, QC",Nothing_found
393,Montreal,"Senior Manager, Data Science",SSENSE,"Montréal, QC",Nothing_found
394,Montreal,Staff Software Engineer (Machine Learning),Slack,"Montréal, QC",Nothing_found
395,Montreal,Machine Learning Developer / Développeur en apprentissage automatique,Unity Technologies,"Montréal, QC",Nothing_found
396,Montreal,Deep Learning Software Engineer,"Deeplite, Inc.","Montréal, QC",Nothing_found
397,Montreal,"Senior Manager, Data Science",SSENSE,"Montréal, QC",Nothing_found
398,Montreal,"Senior developer Backend AWS IoT, Machine Learning & AI",Services Conseils IntelliSoft inc.,"Montréal, QC",Nothing_found
399,Montreal,Applied Machine Learning Researcher,Morgan Stanley,"Montréal, QC",Nothing_found
400,Montreal,Senior Data Scientist,Zesty.ai,"Montréal, QC",Nothing_found
401,Montreal,"Machine Learning Engineer, Time Series Predictive Modeling",Corning,"Montréal, QC",Nothing_found
402,Montreal,Staff Software Engineer (Machine Learning),Slack,"Montréal, QC",Nothing_found
403,Montreal,Senior Machine Learning/ AI Engineer,Jumio Corporation,"Montréal, QC",Nothing_found
404,Montreal,Machine Learning Engineer - KPMG Lighthouse,KPMG,"Montréal, QC",Nothing_found
405,Montreal,Intern - AI/Deep Learning,"Deeplite, Inc.","Montréal, QC",Nothing_found
406,Montreal,Scientifique appliqué de données - NLP,Coveo Solutions,"Montréal, QC",Nothing_found
407,Montreal,Machine learning driven decision support for the operation of process systems,Polytechnique Montreal,"Montréal, QC",Nothing_found
408,Montreal,Machine Learning Engineering Specialist,Morgan Stanley,"Montréal, QC",Nothing_found
409,Montreal,Machine Learning & Signal Processing Specialist,TandemLaunch,"Montréal, QC",Nothing_found
410,Montreal,Machine Learning & Signal Processing Specialist,TandemLaunch,"Montréal, QC",Nothing_found
411,Montreal,"Data Engineer, Omnia AI (Montreal)",Deloitte,"Montréal, QC",Nothing_found
412,Montreal,Machine Learning Research Engineer,MarketMuse,"Montréal, QC",Nothing_found
413,Montreal,"Postdoctoral Researcher, Artificial Intelligence | Chercheur ou chercheuse postdoctoral(e), Intelligence artificielle",Facebook,"Montréal, QC",Nothing_found
414,Montreal,Senior Data Analyst // Analyste de données sénior,Mistplay,"Montréal, QC",Nothing_found
415,Montreal,Assistant Professor in cosmology and machine learning,Université de Montréal,"Montréal, QC",Nothing_found
416,Montreal,"Specialist, Advanced Analytics",Aldo Groupe,"Montréal, QC",Nothing_found
417,Montreal,Deep Learning Compiler Engineer,"Deeplite, Inc.","Montréal, QC",Nothing_found
418,Montreal,Senior Machine-Learning Developer,Coginov,"Longueuil, QC•Remote",Nothing_found
419,Montreal,Tenure-Track Position in Innovation in Machine Learning and Artificial Intelligence,Concordia University,"Montréal, QC",Nothing_found
420,Montreal,Staff Developer - Artificial Intelligence (AI) and Machine Learning (ML),SSENSE,"Montréal, QC",Nothing_found
421,Montreal,CIISE: Postdoctoral Fellow in Machine Learning Algorithm Design,Concordia University,"Montréal, QC","$45,000 a year"
422,Montreal,Associate Applied Research Scientist - ATG,ServiceNow,"Montréal, QC",Nothing_found
423,Montreal,"Manager, Software Development in AI, Intact Lab",Intact,"Montréal, QC",Nothing_found
424,Montreal,Senior Applied Research Scientist - ATG,ServiceNow,"Montréal, QC",Nothing_found
425,Montreal,Web Analytics Specialist,Nurun,"Montréal, QC•Remote",Nothing_found
426,Montreal,Staff Software Engineer (Machine Learning)- Slack,Salesforce,"Montréal, QC",Nothing_found
427,Montreal,IT development manager – Blockchain and data science,Groom & Associes,"Montréal, QC",Nothing_found
428,Montreal,CEO of Machine Learning Audio Processing Startup,TandemLaunch,"Montréal, QC",Nothing_found
429,Montreal,IT research center manager - Data Science and Blockchain,Groom & Associes,"Montréal, QC",Nothing_found
430,Montreal,"Senior Consultant, SAP Data Engineer, Omnia AI (Montreal)",Deloitte,"Montréal, QC",Nothing_found
431,Montreal,"Machine Learning Engineer, Natural Language Processing",Corning,"Montréal, QC",Nothing_found
432,Montreal,Tenure-Track Faculty Position in Computer Science: Machine Learning,McGill University,"Montréal, QC",Nothing_found
433,Montreal,"Data Analyst, Finance",Sheertex,"Montréal, QC",Nothing_found
434,Montreal,Architecte de Solution Microsoft BI,agileDSS,"Montréal, QC•Temporarily Remote","$105,000 - $130,000 a year"
435,Montreal,"Senior IT Architect, Data and Analytics, Intact Lab",Intact,"Montréal, QC",Nothing_found
436,Montreal,"Lead, BI Developer / Chef d'équipe, Développeur en intelligence d'affaires",Unity Technologies,"Montréal, QC",Nothing_found
437,Montreal,Cloud and Big Data Support Lead,IQVIA,"Kirkland, QC",Nothing_found
438,Montreal,Technical Program Manager (ML/AI),Volta Charging,"Montréal, QC",Nothing_found
439,Montreal,Assistant Professor in cognitive neuroscience and artificial intelligence,Université de Montréal,"Montréal, QC",Nothing_found
440,Calgary,Data Scientist,Suncor Energy Services,"Calgary, AB",Nothing_found
441,Calgary,data scientist,ICwhatUC Incorporated,"Calgary, AB•Remote","$85,000 - $90,000 a year"
442,Calgary,Data Scientist,Tundra Oil & Gas Limited,"Calgary, AB",Nothing_found
443,Calgary,Data Scientist,Envirosoft,"Calgary, AB•Temporarily Remote",Nothing_found
444,Calgary,Data Scientist,TELUS,"Calgary, AB",Nothing_found
445,Calgary,Data Scientist,Your Arbor INC,"Calgary, AB•Remote",Nothing_found
446,Calgary,"Petroleum Engineer – Machine Learning, Data Scientist",Opla Energy Ltd.,"Calgary, AB",Nothing_found
447,Calgary,Data Scientist (Remote),Cadre,"Calgary, AB•Temporarily Remote",Nothing_found
448,Calgary,Data Scientist Intern (4 Months),IBM,"Calgary, AB",Nothing_found
449,Calgary,Data Analyst,Shaw Communications,"Calgary, AB•Remote",Nothing_found
450,Calgary,Data Scientist,White Whale Analytics,"Calgary, AB",Nothing_found
451,Calgary,Senior Data Scientist,TalentSphere Staffing Solutions,"Calgary, AB•Remote",Nothing_found
452,Calgary,Data Scientist,MobSquad,"Calgary, AB•Remote",Nothing_found
453,Calgary,Data Analyst,The Mustard Seed,"Calgary, AB•Temporarily Remote",Nothing_found
454,Calgary,Data Scientist Lead,TalentSphere Staffing Solutions,"Calgary, AB•Remote",Nothing_found
455,Calgary,Linguistic Data Analyst,Getty Images,"Calgary, AB•Temporarily Remote",Nothing_found
456,Calgary,"Senior Data Analyst, Loyalty Insights",WestJet,"Calgary, AB•Remote",Nothing_found
457,Calgary,Data Scientist (Remote),Cadre,"Calgary, AB•Temporarily Remote",Nothing_found
458,Calgary,Senior Data Scientist,Pantheon Odyssey Technologies Ltd.,"Calgary, AB",Nothing_found
459,Calgary,Senior Data Analytics & BI Analyst,Vermilion Energy,"Calgary, AB",Nothing_found
460,Calgary,Data Science Developer,Cold Bore Technology,"Calgary, AB",Nothing_found
461,Calgary,Data Science Intern,Pason Systems Corp,"Calgary, AB",Nothing_found
462,Calgary,Senior Data Scientist,TalentSphere Staffing Solutions,"Calgary, AB•Remote",Nothing_found
463,Calgary,Machine Learning Engineer,SkyIT Services Ltd.,"Calgary, AB•Remote",$18 - $30 an hour
464,Calgary,Machine Learning Developer Intern (4 Months),IBM,"Calgary, AB",Nothing_found
465,Calgary,"Senior Data Scientist, Intact Lab (West)",Intact,"Calgary, AB•Remote",Nothing_found
466,Calgary,Associate Machine Learning Developer (Cohort 6),AltaML,"Calgary, AB",Nothing_found
467,Calgary,Data Scientist – Search (Contract),Getty Images,"Calgary, AB",Nothing_found
468,Calgary,Data Scientist Lead,TalentSphere Staffing Solutions,"Calgary, AB•Remote",Nothing_found
469,Calgary,Senior Master Data Analyst,InSync,"Calgary, AB",Nothing_found
470,Calgary,Data Scientist,ATB Financial,"Calgary, AB",Nothing_found
471,Calgary,"Manager, Data Science",AltaML,"Calgary, AB",Nothing_found
472,Calgary,"Senior Specialist, Data Science",Canadian Pacific,"Calgary, AB",Nothing_found
473,Calgary,Machine Learning Engineer,CGG,"Calgary, AB",Nothing_found
474,Calgary,Senior Machine Learning Developer,AltaML,"Calgary, AB",Nothing_found
475,Calgary,Senior Data Scientist,TalentSphere Staffing Solutions,"Calgary, AB•Remote",Nothing_found
476,Calgary,Software Engineer - Machine Learning (Remote),Yelp,"Calgary, AB•Remote",Nothing_found
477,Calgary,"AI Engineer (Calgary, AB)",RBC,"Calgary, AB",Nothing_found
478,Calgary,"Manager, Research/Data Scientist",Intermap Tech,"Calgary, AB",Nothing_found
479,Calgary,"Software Engineer - Snowflake, Omnia AI",Deloitte,"Calgary, AB",Nothing_found
480,Calgary,Data Scientist (Remote),Cadre,"Calgary, AB•Temporarily Remote",Nothing_found
481,Calgary,Software Developer – Environmental Data Analytics,Hatfield Consultants,"Calgary, AB",Nothing_found
482,Calgary,Enterprise Data Architect,Ledcor,"Calgary, AB",Nothing_found
483,Calgary,Data Scientist Lead,TalentSphere Staffing Solutions,"Calgary, AB•Remote",Nothing_found
484,Calgary,"Software Engineer - Dell Boomi, Omnia AI",Deloitte,"Calgary, AB",Nothing_found
485,Calgary,"Manager, Data Science",AltaML,"Calgary, AB",Nothing_found
486,Calgary,"Senior Specialist, Data Science",Canadian Pacific,"Calgary, AB",Nothing_found
487,Calgary,Data Scientist,ATB Financial,"Calgary, AB",Nothing_found
488,Calgary,Machine Learning Engineer,CGG,"Calgary, AB",Nothing_found
489,Calgary,Software Engineer - Machine Learning (Remote),Yelp,"Calgary, AB•Remote",Nothing_found
490,Calgary,"Manager, Research/Data Scientist",Intermap Tech,"Calgary, AB",Nothing_found
491,Calgary,Senior Machine Learning Developer,AltaML,"Calgary, AB",Nothing_found
492,Calgary,"AI Engineer (Calgary, AB)",RBC,"Calgary, AB",Nothing_found
493,Calgary,Software Developer – Environmental Data Analytics,Hatfield Consultants,"Calgary, AB",Nothing_found
494,Calgary,Enterprise Data Architect,Ledcor,"Calgary, AB",Nothing_found
495,Calgary,Software Developer – Environmental Data Analytics,Hatfield Consultants,"Calgary, AB",Nothing_found
496,Calgary,Enterprise Data Architect,Ledcor,"Calgary, AB",Nothing_found
497,Calgary,"Software Engineer - Dell Boomi, Omnia AI",Deloitte,"Calgary, AB",Nothing_found
498,Calgary,Senior Analyst - Advanced Analytics,TC Energy,"Calgary, AB",Nothing_found
499,Calgary,Marketing Analytics Lead,Critical Mass,"Calgary, AB",Nothing_found
500,Calgary,Research Software Developer - Machine Learning,Circle Cardiovascular Imaging Inc.,"Calgary, AB",Nothing_found
501,Calgary,Data Engineering and AI/ML Solution Area Lead (flexible work location),MNP,"Calgary, AB•Remote",Nothing_found
502,Calgary,Senior Software Engineer (NLP) (Remote Friendly),Galvanize,"Calgary, AB•Remote",Nothing_found
503,Calgary,Senior Data Scientist,TalentSphere Staffing Solutions,"Calgary, AB•Remote",Nothing_found
504,Calgary,Data Scientist (Remote),Cadre,"Calgary, AB•Temporarily Remote",Nothing_found
505,Calgary,Data Scientist Lead,TalentSphere Staffing Solutions,"Calgary, AB•Remote",Nothing_found
506,Calgary,"Software Engineer - MuleSoft, Omnia AI",Deloitte,"Calgary, AB",Nothing_found
507,Calgary,Machine Learning Engineer,Laivly,"Calgary, AB•Remote",Nothing_found
508,Calgary,"Canada Research Chair (Tier I), Quantum Machine Learning, Faculty of Science",The University of Calgary,"Calgary, AB",Nothing_found
509,Calgary,Senior Machine Learning Engineer,Laivly,"Calgary, AB",Nothing_found
510,Calgary,Senior Machine Learning Engineer,Laivly,"Calgary, AB",Nothing_found
511,Calgary,Software Developer – Environmental Data Analytics,Hatfield Consultants,"Calgary, AB",Nothing_found
512,Calgary,Enterprise Data Architect,Ledcor,"Calgary, AB",Nothing_found
513,Calgary,"Software Engineer - Dell Boomi, Omnia AI",Deloitte,"Calgary, AB",Nothing_found
514,Calgary,Senior Analyst - Advanced Analytics,TC Energy,"Calgary, AB",Nothing_found
515,Calgary,Marketing Analytics Lead,Critical Mass,"Calgary, AB",Nothing_found
516,Calgary,Research Software Developer - Machine Learning,Circle Cardiovascular Imaging Inc.,"Calgary, AB",Nothing_found
517,Calgary,Data Engineering and AI/ML Solution Area Lead (flexible work location),MNP,"Calgary, AB•Remote",Nothing_found
518,Calgary,Senior Software Engineer (NLP) (Remote Friendly),Galvanize,"Calgary, AB•Remote",Nothing_found
519,Calgary,Data Scientist (Remote),Cadre,"Calgary, AB•Temporarily Remote",Nothing_found
520,Calgary,Senior Data Scientist,TalentSphere Staffing Solutions,"Calgary, AB•Remote",Nothing_found
521,Calgary,Data Scientist Lead,TalentSphere Staffing Solutions,"Calgary, AB•Remote",Nothing_found
522,Calgary,"Software Engineer - MuleSoft, Omnia AI",Deloitte,"Calgary, AB",Nothing_found
523,Calgary,Machine Learning Engineer,Laivly,"Calgary, AB•Remote",Nothing_found
524,Calgary,"Canada Research Chair (Tier I), Quantum Machine Learning, Faculty of Science",The University of Calgary,"Calgary, AB",Nothing_found
525,Calgary,Senior Machine Learning Engineer,Laivly,"Calgary, AB",Nothing_found
526,Calgary,"AI Engineer (Calgary, AB)",RBC,"Calgary, AB",Nothing_found
527,Calgary,Software Developer – Environmental Data Analytics,Hatfield Consultants,"Calgary, AB",Nothing_found
528,Calgary,Enterprise Data Architect,Ledcor,"Calgary, AB",Nothing_found
529,Calgary,Senior Analyst - Advanced Analytics,TC Energy,"Calgary, AB",Nothing_found
530,Calgary,Research Software Developer - Machine Learning,Circle Cardiovascular Imaging Inc.,"Calgary, AB",Nothing_found
531,Calgary,Data Engineering and AI/ML Solution Area Lead (flexible work location),MNP,"Calgary, AB•Remote",Nothing_found
532,Calgary,Marketing Analytics Lead,Critical Mass,"Calgary, AB",Nothing_found
533,Calgary,"Software Engineer - Snowflake, Omnia AI",Deloitte,"Calgary, AB",Nothing_found
534,Calgary,"Software Engineer - Dell Boomi, Omnia AI",Deloitte,"Calgary, AB",Nothing_found
535,Calgary,Machine Learning Engineering Lead,TalentSphere Staffing Solutions,"Calgary, AB•Remote",Nothing_found
536,Calgary,Senior Software Engineer (NLP) (Remote Friendly),Galvanize,"Calgary, AB•Remote",Nothing_found
537,Calgary,Machine Learning Engineer,Laivly,"Calgary, AB•Remote",Nothing_found
538,Calgary,"Canada Research Chair (Tier I), Quantum Machine Learning, Faculty of Science",The University of Calgary,"Calgary, AB",Nothing_found
539,Calgary,"Software Engineer - MuleSoft, Omnia AI",Deloitte,"Calgary, AB",Nothing_found
540,Calgary,Senior Machine Learning Engineer,Laivly,"Calgary, AB",Nothing_found
541,Calgary,Software Developer – Environmental Data Analytics,Hatfield Consultants,"Calgary, AB",Nothing_found
542,Calgary,Enterprise Data Architect,Ledcor,"Calgary, AB",Nothing_found
543,Calgary,"Software Engineer - Dell Boomi, Omnia AI",Deloitte,"Calgary, AB",Nothing_found
544,Calgary,Senior Analyst - Advanced Analytics,TC Energy,"Calgary, AB",Nothing_found
545,Calgary,Marketing Analytics Lead,Critical Mass,"Calgary, AB",Nothing_found
546,Calgary,Research Software Developer - Machine Learning,Circle Cardiovascular Imaging Inc.,"Calgary, AB",Nothing_found
547,Calgary,Data Engineering and AI/ML Solution Area Lead (flexible work location),MNP,"Calgary, AB•Remote",Nothing_found
548,Calgary,Senior Software Engineer (NLP) (Remote Friendly),Galvanize,"Calgary, AB•Remote",Nothing_found
549,Calgary,Data Scientist (Remote),Cadre,"Calgary, AB•Temporarily Remote",Nothing_found
550,Calgary,Senior Data Scientist,TalentSphere Staffing Solutions,"Calgary, AB•Remote",Nothing_found
551,Calgary,Data Scientist Lead,TalentSphere Staffing Solutions,"Calgary, AB•Remote",Nothing_found
552,Calgary,"Software Engineer - MuleSoft, Omnia AI",Deloitte,"Calgary, AB",Nothing_found
553,Calgary,Machine Learning Engineer,Laivly,"Calgary, AB•Remote",Nothing_found
554,Calgary,"Canada Research Chair (Tier I), Quantum Machine Learning, Faculty of Science",The University of Calgary,"Calgary, AB",Nothing_found
555,Calgary,Senior Machine Learning Engineer,Laivly,"Calgary, AB",Nothing_found
556,Calgary,Software Developer – Environmental Data Analytics,Hatfield Consultants,"Calgary, AB",Nothing_found
557,Calgary,Enterprise Data Architect,Ledcor,"Calgary, AB",Nothing_found
558,Calgary,"Software Engineer - Dell Boomi, Omnia AI",Deloitte,"Calgary, AB",Nothing_found
559,Calgary,Senior Analyst - Advanced Analytics,TC Energy,"Calgary, AB",Nothing_found
560,Calgary,Marketing Analytics Lead,Critical Mass,"Calgary, AB",Nothing_found
561,Calgary,Research Software Developer - Machine Learning,Circle Cardiovascular Imaging Inc.,"Calgary, AB",Nothing_found
562,Calgary,Data Engineering and AI/ML Solution Area Lead (flexible work location),MNP,"Calgary, AB•Remote",Nothing_found
563,Calgary,Senior Software Engineer (NLP) (Remote Friendly),Galvanize,"Calgary, AB•Remote",Nothing_found
564,Calgary,Senior Data Scientist,TalentSphere Staffing Solutions,"Calgary, AB•Remote",Nothing_found
565,Calgary,Data Scientist (Remote),Cadre,"Calgary, AB•Temporarily Remote",Nothing_found
566,Calgary,Data Scientist Lead,TalentSphere Staffing Solutions,"Calgary, AB•Remote",Nothing_found
567,Calgary,"Software Engineer - MuleSoft, Omnia AI",Deloitte,"Calgary, AB",Nothing_found
568,Calgary,Machine Learning Engineer,Laivly,"Calgary, AB•Remote",Nothing_found
569,Calgary,"Canada Research Chair (Tier I), Quantum Machine Learning, Faculty of Science",The University of Calgary,"Calgary, AB",Nothing_found
570,Calgary,Senior Machine Learning Engineer,Laivly,"Calgary, AB",Nothing_found
571,Edmonton,Associate Machine Learning Scientist (DSC-102021),Alberta Machine Intelligence Institute,"Edmonton, AB•Temporarily Remote",Nothing_found
572,Edmonton,Data Science Intern,PCL Construction,"Edmonton, AB",Nothing_found
573,Edmonton,Data Science Student,PCL Construction,"Edmonton, AB",Nothing_found
574,Edmonton,Senior Data Scientist,TalentSphere Staffing Solutions,"Edmonton, AB•Remote",Nothing_found
575,Edmonton,Machine Learning Project Manager - Advanced Technology (ADPM202110),Alberta Machine Intelligence Institute,"Edmonton, AB•Temporarily Remote",Nothing_found
576,Edmonton,Data Scientist Lead,TalentSphere Staffing Solutions,"Edmonton, AB•Remote",Nothing_found
577,Edmonton,Data Analyst,TELUS,"Edmonton, AB",Nothing_found
578,Edmonton,Business Intelligence Analyst,Government of Alberta,"Edmonton, AB","$5,228 - $6,857 a month"
579,Edmonton,Geospatial Data Analyst,University of Alberta,"Edmonton, AB","$57,628 - $78,270 a year"
580,Edmonton,Senior Data Analyst,TalentSphere Staffing Solutions,"Edmonton, AB",Nothing_found
581,Edmonton,Machine Learning Specialist,48Hour Discovery,"Edmonton, AB",Nothing_found
582,Edmonton,Machine Learning Engineering Lead,TalentSphere Staffing Solutions,"Edmonton, AB•Remote",Nothing_found
583,Edmonton,"Analyst, Analytics & Insights (Impact Value Stream) (Remote)",World Vision Canada,"Edmonton, AB•Remote",Nothing_found
584,Edmonton,"Manager, Data Science",AltaML,"Edmonton, AB",Nothing_found
585,Edmonton,Senior Machine Learning Developer,AltaML,"Edmonton, AB",Nothing_found
586,Edmonton,BI Analyst,Vantix Systems Inc,"Edmonton, AB•Remote",Nothing_found
587,Edmonton,Enterprise Data Architect,Ledcor,"Edmonton, AB",Nothing_found
588,Edmonton,Postdoctoral Position in Solid-State Chemistry and Machine Learning for Materials Science,University of Alberta,"Edmonton, AB",Nothing_found
589,Edmonton,Senior Data Analyst,TalentSphere Staffing Solutions,"Edmonton, AB",Nothing_found
590,Edmonton,Machine Learning Engineering Lead,TalentSphere Staffing Solutions,"Edmonton, AB•Remote",Nothing_found
591,Edmonton,Data Analyst,TELUS,"Edmonton, AB",Nothing_found
592,Edmonton,Business Intelligence Analyst,Government of Alberta,"Edmonton, AB","$5,228 - $6,857 a month"
593,Edmonton,Senior Machine Learning Developer,RecycleSmart,Canada•Remote,Nothing_found
594,Edmonton,Geospatial Data Analyst,University of Alberta,"Edmonton, AB","$57,628 - $78,270 a year"
595,Edmonton,Senior Data Analyst,TalentSphere Staffing Solutions,"Edmonton, AB",Nothing_found
596,Edmonton,Machine Learning Specialist,48Hour Discovery,"Edmonton, AB",Nothing_found
597,Edmonton,Machine Learning Engineering Lead,TalentSphere Staffing Solutions,"Edmonton, AB•Remote",Nothing_found
598,Edmonton,"Analyst, Analytics & Insights (Impact Value Stream) (Remote)",World Vision Canada,"Edmonton, AB•Remote",Nothing_found
599,Edmonton,"Manager, Data Science",AltaML,"Edmonton, AB",Nothing_found
600,Edmonton,Senior Machine Learning Developer,AltaML,"Edmonton, AB",Nothing_found
601,Edmonton,"Director, Business Analytics",Jobber,"Edmonton, AB",Nothing_found
602,Edmonton,Business Intelligence Manager,Peace Hills Insurance,"Edmonton, AB",Nothing_found
603,Edmonton,BI Analyst,Vantix Systems Inc,"Edmonton, AB•Remote",Nothing_found
604,Edmonton,Enterprise Data Architect,Ledcor,"Edmonton, AB",Nothing_found
605,Edmonton,Postdoctoral Position in Solid-State Chemistry and Machine Learning for Materials Science,University of Alberta,"Edmonton, AB",Nothing_found
606,Edmonton,Data Scientist Lead,TalentSphere Staffing Solutions,"Edmonton, AB•Remote",Nothing_found
607,Edmonton,Data Analyst,TELUS,"Edmonton, AB",Nothing_found
608,Edmonton,Business Intelligence Analyst,Government of Alberta,"Edmonton, AB","$5,228 - $6,857 a month"
609,Edmonton,Geospatial Data Analyst,University of Alberta,"Edmonton, AB","$57,628 - $78,270 a year"
610,Edmonton,Machine Learning Specialist,48Hour Discovery,"Edmonton, AB",Nothing_found
611,Edmonton,"Analyst, Analytics & Insights (Impact Value Stream) (Remote)",World Vision Canada,"Edmonton, AB•Remote",Nothing_found
612,Edmonton,Senior Data Analyst,TalentSphere Staffing Solutions,"Edmonton, AB",Nothing_found
613,Edmonton,Machine Learning Engineering Lead,TalentSphere Staffing Solutions,"Edmonton, AB•Remote",Nothing_found
614,Edmonton,"Manager, Data Science",AltaML,"Edmonton, AB",Nothing_found
615,Edmonton,Senior Machine Learning Developer,AltaML,"Edmonton, AB",Nothing_found
616,Edmonton,BI Analyst,Vantix Systems Inc,"Edmonton, AB•Remote",Nothing_found
617,Edmonton,"Director, Business Analytics",Jobber,"Edmonton, AB",Nothing_found
618,Edmonton,Enterprise Data Architect,Ledcor,"Edmonton, AB",Nothing_found
619,Edmonton,Business Intelligence Manager,Peace Hills Insurance,"Edmonton, AB",Nothing_found
620,Edmonton,Postdoctoral Position in Solid-State Chemistry and Machine Learning for Materials Science,University of Alberta,"Edmonton, AB",Nothing_found
621,Edmonton,Geospatial Data Analyst,University of Alberta,"Edmonton, AB","$57,628 - $78,270 a year"
622,Edmonton,Machine Learning Project Manager - Advanced Technology (ADPM202110),Alberta Machine Intelligence Institute,"Edmonton, AB•Temporarily Remote",Nothing_found
623,Edmonton,Senior Data Scientist,TalentSphere Staffing Solutions,"Edmonton, AB•Remote",Nothing_found
624,Edmonton,Data Scientist Lead,TalentSphere Staffing Solutions,"Edmonton, AB•Remote",Nothing_found
625,Edmonton,Machine Learning Specialist,48Hour Discovery,"Edmonton, AB",Nothing_found
626,Edmonton,"Analyst, Analytics & Insights (Impact Value Stream) (Remote)",World Vision Canada,"Edmonton, AB•Remote",Nothing_found
627,Edmonton,"Manager, Data Science",AltaML,"Edmonton, AB",Nothing_found
628,Edmonton,Senior Machine Learning Developer,AltaML,"Edmonton, AB",Nothing_found
629,Edmonton,BI Analyst,Vantix Systems Inc,"Edmonton, AB•Remote",Nothing_found
630,Edmonton,"Director, Business Analytics",Jobber,"Edmonton, AB",Nothing_found
631,Edmonton,Enterprise Data Architect,Ledcor,"Edmonton, AB",Nothing_found
632,Edmonton,Business Intelligence Manager,Peace Hills Insurance,"Edmonton, AB",Nothing_found
633,Edmonton,Postdoctoral Position in Solid-State Chemistry and Machine Learning for Materials Science,University of Alberta,"Edmonton, AB",Nothing_found
634,Edmonton,Senior Data Analyst,TalentSphere Staffing Solutions,"Edmonton, AB",Nothing_found
635,Edmonton,Machine Learning Engineering Lead,TalentSphere Staffing Solutions,"Edmonton, AB•Remote",Nothing_found
636,Edmonton,Machine Learning Project Manager - Advanced Technology (ADPM202110),Alberta Machine Intelligence Institute,"Edmonton, AB•Temporarily Remote",Nothing_found
637,Edmonton,Data Analyst,TELUS,"Edmonton, AB",Nothing_found
638,Edmonton,Business Intelligence Analyst,Government of Alberta,"Edmonton, AB","$5,228 - $6,857 a month"
639,Edmonton,Geospatial Data Analyst,University of Alberta,"Edmonton, AB","$57,628 - $78,270 a year"
640,Edmonton,Machine Learning Specialist,48Hour Discovery,"Edmonton, AB",Nothing_found
641,Edmonton,"Analyst, Analytics & Insights (Impact Value Stream) (Remote)",World Vision Canada,"Edmonton, AB•Remote",Nothing_found
642,Edmonton,Senior Data Analyst,TalentSphere Staffing Solutions,"Edmonton, AB",Nothing_found
643,Edmonton,Machine Learning Engineering Lead,TalentSphere Staffing Solutions,"Edmonton, AB•Remote",Nothing_found
644,Edmonton,"Manager, Data Science",AltaML,"Edmonton, AB",Nothing_found
645,Edmonton,Senior Machine Learning Developer,AltaML,"Edmonton, AB",Nothing_found
646,Edmonton,BI Analyst,Vantix Systems Inc,"Edmonton, AB•Remote",Nothing_found
647,Edmonton,"Director, Business Analytics",Jobber,"Edmonton, AB",Nothing_found
648,Edmonton,Enterprise Data Architect,Ledcor,"Edmonton, AB",Nothing_found
649,Edmonton,Business Intelligence Manager,Peace Hills Insurance,"Edmonton, AB",Nothing_found
650,Edmonton,Postdoctoral Position in Solid-State Chemistry and Machine Learning for Materials Science,University of Alberta,"Edmonton, AB",Nothing_found
651,Edmonton,Data Scientist Lead,TalentSphere Staffing Solutions,"Edmonton, AB•Remote",Nothing_found
652,Edmonton,Data Analyst,TELUS,"Edmonton, AB",Nothing_found
653,Edmonton,Business Intelligence Analyst,Government of Alberta,"Edmonton, AB","$5,228 - $6,857 a month"
654,Edmonton,Geospatial Data Analyst,University of Alberta,"Edmonton, AB","$57,628 - $78,270 a year"
655,Edmonton,Machine Learning Specialist,48Hour Discovery,"Edmonton, AB",Nothing_found
656,Edmonton,"Analyst, Analytics & Insights (Impact Value Stream) (Remote)",World Vision Canada,"Edmonton, AB•Remote",Nothing_found
657,Edmonton,Senior Data Analyst,TalentSphere Staffing Solutions,"Edmonton, AB",Nothing_found
658,Edmonton,Machine Learning Engineering Lead,TalentSphere Staffing Solutions,"Edmonton, AB•Remote",Nothing_found
659,Edmonton,"Manager, Data Science",AltaML,"Edmonton, AB",Nothing_found
660,Edmonton,Senior Machine Learning Developer,AltaML,"Edmonton, AB",Nothing_found
661,Edmonton,BI Analyst,Vantix Systems Inc,"Edmonton, AB•Remote",Nothing_found
662,Edmonton,"Director, Business Analytics",Jobber,"Edmonton, AB",Nothing_found
663,Edmonton,Enterprise Data Architect,Ledcor,"Edmonton, AB",Nothing_found
664,Edmonton,Business Intelligence Manager,Peace Hills Insurance,"Edmonton, AB",Nothing_found
665,Edmonton,Postdoctoral Position in Solid-State Chemistry and Machine Learning for Materials Science,University of Alberta,"Edmonton, AB",Nothing_found
666,Edmonton,Machine Learning Project Manager - Advanced Technology (ADPM202110),Alberta Machine Intelligence Institute,"Edmonton, AB•Temporarily Remote",Nothing_found
667,Edmonton,Data Analyst,TELUS,"Edmonton, AB",Nothing_found
668,Edmonton,Business Intelligence Analyst,Government of Alberta,"Edmonton, AB","$5,228 - $6,857 a month"
669,Edmonton,Geospatial Data Analyst,University of Alberta,"Edmonton, AB","$57,628 - $78,270 a year"
670,Edmonton,Machine Learning Specialist,48Hour Discovery,"Edmonton, AB",Nothing_found
671,Edmonton,"Analyst, Analytics & Insights (Impact Value Stream) (Remote)",World Vision Canada,"Edmonton, AB•Remote",Nothing_found
672,Edmonton,Senior Data Analyst,TalentSphere Staffing Solutions,"Edmonton, AB",Nothing_found
673,Edmonton,Machine Learning Engineering Lead,TalentSphere Staffing Solutions,"Edmonton, AB•Remote",Nothing_found
674,Edmonton,"Manager, Data Science",AltaML,"Edmonton, AB",Nothing_found
675,Edmonton,Senior Machine Learning Developer,AltaML,"Edmonton, AB",Nothing_found
676,Edmonton,BI Analyst,Vantix Systems Inc,"Edmonton, AB•Remote",Nothing_found
677,Edmonton,"Director, Business Analytics",Jobber,"Edmonton, AB",Nothing_found
678,Edmonton,Enterprise Data Architect,Ledcor,"Edmonton, AB",Nothing_found
679,Edmonton,Business Intelligence Manager,Peace Hills Insurance,"Edmonton, AB",Nothing_found
680,Edmonton,Postdoctoral Position in Solid-State Chemistry and Machine Learning for Materials Science,University of Alberta,"Edmonton, AB",Nothing_found
681,Edmonton,Data Analyst,TELUS,"Edmonton, AB",Nothing_found
682,Edmonton,Data Scientist Lead,TalentSphere Staffing Solutions,"Edmonton, AB•Remote",Nothing_found
683,Edmonton,Business Intelligence Analyst,Government of Alberta,"Edmonton, AB","$5,228 - $6,857 a month"
684,Edmonton,Geospatial Data Analyst,University of Alberta,"Edmonton, AB","$57,628 - $78,270 a year"
685,Edmonton,Machine Learning Specialist,48Hour Discovery,"Edmonton, AB",Nothing_found
686,Edmonton,"Analyst, Analytics & Insights (Impact Value Stream) (Remote)",World Vision Canada,"Edmonton, AB•Remote",Nothing_found
687,Edmonton,Senior Data Analyst,TalentSphere Staffing Solutions,"Edmonton, AB",Nothing_found
688,Edmonton,Machine Learning Engineering Lead,TalentSphere Staffing Solutions,"Edmonton, AB•Remote",Nothing_found
689,Edmonton,"Manager, Data Science",AltaML,"Edmonton, AB",Nothing_found
690,Edmonton,Senior Machine Learning Developer,AltaML,"Edmonton, AB",Nothing_found
691,Edmonton,"Director, Business Analytics",Jobber,"Edmonton, AB",Nothing_found
692,Edmonton,Business Intelligence Manager,Peace Hills Insurance,"Edmonton, AB",Nothing_found
693,Edmonton,BI Analyst,Vantix Systems Inc,"Edmonton, AB•Remote",Nothing_found
694,Edmonton,Enterprise Data Architect,Ledcor,"Edmonton, AB",Nothing_found
695,Edmonton,Postdoctoral Position in Solid-State Chemistry and Machine Learning for Materials Science,University of Alberta,"Edmonton, AB",Nothing_found
696,Edmonton,Data Analyst,TELUS,"Edmonton, AB",Nothing_found
697,Edmonton,Business Intelligence Analyst,Government of Alberta,"Edmonton, AB","$5,228 - $6,857 a month"
698,Edmonton,Senior Machine Learning Developer,RecycleSmart,Canada•Remote,Nothing_found
699,Edmonton,Geospatial Data Analyst,University of Alberta,"Edmonton, AB","$57,628 - $78,270 a year"
700,Edmonton,Senior Data Analyst,TalentSphere Staffing Solutions,"Edmonton, AB",Nothing_found
701,Edmonton,Machine Learning Specialist,48Hour Discovery,"Edmonton, AB",Nothing_found
702,Edmonton,Machine Learning Engineering Lead,TalentSphere Staffing Solutions,"Edmonton, AB•Remote",Nothing_found
703,Edmonton,"Analyst, Analytics & Insights (Impact Value Stream) (Remote)",World Vision Canada,"Edmonton, AB•Remote",Nothing_found
704,Edmonton,"Manager, Data Science",AltaML,"Edmonton, AB",Nothing_found
705,Edmonton,Senior Machine Learning Developer,AltaML,"Edmonton, AB",Nothing_found
706,Edmonton,"Director, Business Analytics",Jobber,"Edmonton, AB",Nothing_found
707,Edmonton,Business Intelligence Manager,Peace Hills Insurance,"Edmonton, AB",Nothing_found
708,Edmonton,BI Analyst,Vantix Systems Inc,"Edmonton, AB•Remote",Nothing_found
709,Edmonton,Enterprise Data Architect,Ledcor,"Edmonton, AB",Nothing_found
710,Edmonton,Postdoctoral Position in Solid-State Chemistry and Machine Learning for Materials Science,University of Alberta,"Edmonton, AB",Nothing_found
711,Ottawa,Data Scientist,Genomadix Inc.,"Ottawa, ON•Remote",Nothing_found
712,Ottawa,Data Scientist,MSi Corp (Bell Canada),"Ottawa, ON",Nothing_found
713,Ottawa,Data Scientist,MindBridge Ai,"Ottawa, ON",Nothing_found
714,Ottawa,Data Analyst,CCTS-CPRST,"Ottawa, ON•Temporarily Remote","$70,000 - $80,000 a year"
715,Ottawa,Senior Data Analyst,RVezy,"Ottawa, ON",Nothing_found
716,Ottawa,Data Scientist,Trend Micro,"Ottawa, ON",Nothing_found
717,Ottawa,Data Scientist,Accedian Networks,"Ottawa, ON",Nothing_found
718,Ottawa,Applied Scientist - Inference and Metrics (Remote),Yelp,"Ottawa, ON•Remote",Nothing_found
719,Ottawa,Lead Data Scientist,Assent Compliance Inc,"Ottawa, ON•Remote",Nothing_found
720,Ottawa,Energy and Sustainability Data Analyst,BGIS,"Ottawa, ON",Nothing_found
721,Ottawa,BHJOB15656_16731 - Machine Learning Developer,Myticas Consulting,"Ottawa, ON",Nothing_found
722,Ottawa,"Analyst, Analytics & Insights (Impact Value Stream) (Remote)",World Vision Canada,"Ottawa, ON•Remote",Nothing_found
723,Ottawa,"Solution Specialist, Data Science",SAS Institute Inc,"Ottawa, ON",Nothing_found
724,Ottawa,"Product Manager, Data Science",Numerator,"Ottawa, ON•Remote",Nothing_found
725,Ottawa,"Data Scientist - Medical Diagnostics Projects - $95,000 base - Ottawa",CorGTA Inc.,"Ottawa, ON•Remote","$85,000 - $95,000 a year"
726,Ottawa,Machine Learning Engineer,People force Consulting,"Ottawa, ON•Temporarily Remote",$60 an hour
727,Ottawa,"Solution Specialist, Data Science",SAS Institute Inc,"Ottawa, ON",Nothing_found
728,Ottawa,Revenue and Cost Analyst,Lumentum Operations LLC,"Ottawa, ON",Nothing_found
729,Ottawa,"Senior Director, Analytics and Insights",Bank of Canada,"Ottawa, ON","$166,000 - $207,000 a year"
730,Ottawa,Machine Learning Scientist (Can be Remote Within Canada),BluWave-ai,"Ottawa, ON•Remote",Nothing_found
731,Ottawa,Software Engineer - Machine Learning (Remote),Yelp,"Ottawa, ON•Remote",Nothing_found
732,Ottawa,Senior Data Analyst (Marketing),Lightspeed Commerce,"Ottawa, ON",Nothing_found
733,Ottawa,CRC Tier 2 Data Analytics for Health Systems Transformation,University of Ottawa,"Ottawa, ON","$20,000 a year"
734,Ottawa,AI Ops Engineer,Ciena,"Ottawa, ON",Nothing_found
735,Ottawa,"Professor in Business Analytics and AI (Predictive Analytics), Assistant rank",University of Ottawa,"Ottawa, ON","$94,000 - $130,000 a year"
736,Ottawa,"Deals, Analytics, Enterprise Data Architect, Senior Manager",PwC,"Ottawa, ON",Nothing_found
737,Ottawa,Python Cloud Developer,High Tech Genesis,"Ottawa, ON",Nothing_found
738,Ottawa,Senior AI – Machine Learning Engineer,ThinkRF Corp,"Kanata, ON•Temporarily Remote",Nothing_found
739,Ottawa,Machine Learning Platform - Full Stack Engineering Manager,"TuSimple, Inc.",Ontario•Remote,Nothing_found
740,Ottawa,"Product Manager, Data Science",Numerator,"Ottawa, ON•Remote",Nothing_found
741,Ottawa,Machine Learning Engineer,People force Consulting,"Ottawa, ON•Temporarily Remote",$60 an hour
742,Ottawa,"Solution Specialist, Data Science",SAS Institute Inc,"Ottawa, ON",Nothing_found
743,Ottawa,Revenue and Cost Analyst,Lumentum Operations LLC,"Ottawa, ON",Nothing_found
744,Ottawa,"Senior Director, Analytics and Insights",Bank of Canada,"Ottawa, ON","$166,000 - $207,000 a year"
745,Ottawa,Machine Learning Scientist (Can be Remote Within Canada),BluWave-ai,"Ottawa, ON•Remote",Nothing_found
746,Ottawa,Software Engineer - Machine Learning (Remote),Yelp,"Ottawa, ON•Remote",Nothing_found
747,Ottawa,Senior Data Analyst (Marketing),Lightspeed Commerce,"Ottawa, ON",Nothing_found
748,Ottawa,CRC Tier 2 Data Analytics for Health Systems Transformation,University of Ottawa,"Ottawa, ON","$20,000 a year"
749,Ottawa,AI Ops Engineer,Ciena,"Ottawa, ON",Nothing_found
750,Ottawa,"Professor in Business Analytics and AI (Predictive Analytics), Assistant rank",University of Ottawa,"Ottawa, ON","$94,000 - $130,000 a year"
751,Ottawa,"Deals, Analytics, Enterprise Data Architect, Senior Manager",PwC,"Ottawa, ON",Nothing_found
752,Ottawa,Python Cloud Developer,High Tech Genesis,"Ottawa, ON",Nothing_found
753,Ottawa,"Data Scientist - Medical Diagnostics Projects - $95,000 base - Ottawa",CorGTA Inc.,"Ottawa, ON•Remote","$85,000 - $95,000 a year"
754,Ottawa,Senior AI – Machine Learning Engineer,ThinkRF Corp,"Kanata, ON•Temporarily Remote",Nothing_found
755,Ottawa,Machine Learning Engineer,People force Consulting,"Ottawa, ON•Temporarily Remote",$60 an hour
756,Ottawa,"Solution Specialist, Data Science",SAS Institute Inc,"Ottawa, ON",Nothing_found
757,Ottawa,Revenue and Cost Analyst,Lumentum Operations LLC,"Ottawa, ON",Nothing_found
758,Ottawa,"Senior Director, Analytics and Insights",Bank of Canada,"Ottawa, ON","$166,000 - $207,000 a year"
759,Ottawa,Machine Learning Scientist (Can be Remote Within Canada),BluWave-ai,"Ottawa, ON•Remote",Nothing_found
760,Ottawa,Software Engineer - Machine Learning (Remote),Yelp,"Ottawa, ON•Remote",Nothing_found
761,Ottawa,"Data Scientist - Medical Diagnostics Projects - $95,000 base - Ottawa",CorGTA Inc.,"Ottawa, ON•Remote","$85,000 - $95,000 a year"
762,Ottawa,Senior Data Analyst (Marketing),Lightspeed Commerce,"Ottawa, ON",Nothing_found
763,Ottawa,CRC Tier 2 Data Analytics for Health Systems Transformation,University of Ottawa,"Ottawa, ON","$20,000 a year"
764,Ottawa,AI Ops Engineer,Ciena,"Ottawa, ON",Nothing_found
765,Ottawa,"Professor in Business Analytics and AI (Predictive Analytics), Assistant rank",University of Ottawa,"Ottawa, ON","$94,000 - $130,000 a year"
766,Ottawa,"Deals, Analytics, Enterprise Data Architect, Senior Manager",PwC,"Ottawa, ON",Nothing_found
767,Ottawa,Senior Data Science Manager,Shopify,"Ottawa, ON",Nothing_found
768,Ottawa,Python Cloud Developer,High Tech Genesis,"Ottawa, ON",Nothing_found
769,Ottawa,Senior AI – Machine Learning Engineer,ThinkRF Corp,"Kanata, ON•Temporarily Remote",Nothing_found
770,Ottawa,Machine Learning Scientist (Can be Remote Within Canada),BluWave-ai,"Ottawa, ON•Remote",Nothing_found
771,Ottawa,Software Engineer - Machine Learning (Remote),Yelp,"Ottawa, ON•Remote",Nothing_found
772,Ottawa,Senior Data Analyst (Marketing),Lightspeed Commerce,"Ottawa, ON",Nothing_found
773,Ottawa,Solution Architect - Analytics Environment,Bank of Canada,"Ottawa, ON","$95,482 - $119,352 a year"
774,Ottawa,CRC Tier 2 Data Analytics for Health Systems Transformation,University of Ottawa,"Ottawa, ON","$20,000 a year"
775,Ottawa,AI Ops Engineer,Ciena,"Ottawa, ON",Nothing_found
776,Ottawa,"Professor in Business Analytics and AI (Predictive Analytics), Assistant rank",University of Ottawa,"Ottawa, ON","$94,000 - $130,000 a year"
777,Ottawa,"Deals, Analytics, Enterprise Data Architect, Senior Manager",PwC,"Ottawa, ON",Nothing_found
778,Ottawa,Python Cloud Developer,High Tech Genesis,"Ottawa, ON",Nothing_found
779,Ottawa,Senior AI – Machine Learning Engineer,ThinkRF Corp,"Kanata, ON•Temporarily Remote",Nothing_found
780,Ottawa,"Solution Specialist, Data Science",SAS Institute Inc,"Ottawa, ON",Nothing_found
781,Ottawa,"Product Manager, Data Science",Numerator,"Ottawa, ON•Remote",Nothing_found
782,Ottawa,Machine Learning Engineer,People force Consulting,"Ottawa, ON•Temporarily Remote",$60 an hour
783,Ottawa,Revenue and Cost Analyst,Lumentum Operations LLC,"Ottawa, ON",Nothing_found
784,Ottawa,"Senior Director, Analytics and Insights",Bank of Canada,"Ottawa, ON","$166,000 - $207,000 a year"
785,Ottawa,Machine Learning Scientist (Can be Remote Within Canada),BluWave-ai,"Ottawa, ON•Remote",Nothing_found
786,Ottawa,Software Engineer - Machine Learning (Remote),Yelp,"Ottawa, ON•Remote",Nothing_found
787,Ottawa,Senior Data Analyst (Marketing),Lightspeed Commerce,"Ottawa, ON",Nothing_found
788,Ottawa,CRC Tier 2 Data Analytics for Health Systems Transformation,University of Ottawa,"Ottawa, ON","$20,000 a year"
789,Ottawa,AI Ops Engineer,Ciena,"Ottawa, ON",Nothing_found
790,Ottawa,Senior Machine Learning Developer,RecycleSmart,Canada•Remote,Nothing_found
791,Ottawa,"Deals, Analytics, Enterprise Data Architect, Senior Manager",PwC,"Ottawa, ON",Nothing_found
792,Ottawa,"Professor in Business Analytics and AI (Predictive Analytics), Assistant rank",University of Ottawa,"Ottawa, ON","$94,000 - $130,000 a year"
793,Ottawa,Senior AI – Machine Learning Engineer,ThinkRF Corp,"Kanata, ON•Temporarily Remote",Nothing_found
794,Ottawa,Python Cloud Developer,High Tech Genesis,"Ottawa, ON",Nothing_found
795,Ottawa,Machine Learning Scientist (Can be Remote Within Canada),BluWave-ai,"Ottawa, ON•Remote",Nothing_found
796,Ottawa,Software Engineer - Machine Learning (Remote),Yelp,"Ottawa, ON•Remote",Nothing_found
797,Ottawa,Senior Data Analyst (Marketing),Lightspeed Commerce,"Ottawa, ON",Nothing_found
798,Ottawa,Solution Architect - Analytics Environment,Bank of Canada,"Ottawa, ON","$95,482 - $119,352 a year"
799,Ottawa,CRC Tier 2 Data Analytics for Health Systems Transformation,University of Ottawa,"Ottawa, ON","$20,000 a year"
800,Ottawa,AI Ops Engineer,Ciena,"Ottawa, ON",Nothing_found
801,Ottawa,"Deals, Analytics, Enterprise Data Architect, Senior Manager",PwC,"Ottawa, ON",Nothing_found
802,Ottawa,"Professor in Business Analytics and AI (Predictive Analytics), Assistant rank",University of Ottawa,"Ottawa, ON","$94,000 - $130,000 a year"
803,Ottawa,Senior AI – Machine Learning Engineer,ThinkRF Corp,"Kanata, ON•Temporarily Remote",Nothing_found
804,Ottawa,Python Cloud Developer,High Tech Genesis,"Ottawa, ON",Nothing_found
805,Ottawa,"Solution Specialist, Data Science",SAS Institute Inc,"Ottawa, ON",Nothing_found
806,Ottawa,"Product Manager, Data Science",Numerator,"Ottawa, ON•Remote",Nothing_found
807,Ottawa,Machine Learning Engineer,People force Consulting,"Ottawa, ON•Temporarily Remote",$60 an hour
808,Ottawa,Revenue and Cost Analyst,Lumentum Operations LLC,"Ottawa, ON",Nothing_found
809,Ottawa,"Senior Director, Analytics and Insights",Bank of Canada,"Ottawa, ON","$166,000 - $207,000 a year"
810,Ottawa,Machine Learning Scientist (Can be Remote Within Canada),BluWave-ai,"Ottawa, ON•Remote",Nothing_found
811,Ottawa,Software Engineer - Machine Learning (Remote),Yelp,"Ottawa, ON•Remote",Nothing_found
812,Ottawa,Senior Data Analyst (Marketing),Lightspeed Commerce,"Ottawa, ON",Nothing_found
813,Ottawa,CRC Tier 2 Data Analytics for Health Systems Transformation,University of Ottawa,"Ottawa, ON","$20,000 a year"
814,Ottawa,AI Ops Engineer,Ciena,"Ottawa, ON",Nothing_found
815,Ottawa,"Deals, Analytics, Enterprise Data Architect, Senior Manager",PwC,"Ottawa, ON",Nothing_found
816,Ottawa,"Professor in Business Analytics and AI (Predictive Analytics), Assistant rank",University of Ottawa,"Ottawa, ON","$94,000 - $130,000 a year"
817,Ottawa,Senior AI – Machine Learning Engineer,ThinkRF Corp,"Kanata, ON•Temporarily Remote",Nothing_found
818,Ottawa,"Data Scientist - Medical Diagnostics Projects - $95,000 base - Ottawa",CorGTA Inc.,"Ottawa, ON•Remote","$85,000 - $95,000 a year"
819,Ottawa,Python Cloud Developer,High Tech Genesis,"Ottawa, ON",Nothing_found
820,Ottawa,"Solution Specialist, Data Science",SAS Institute Inc,"Ottawa, ON",Nothing_found
821,Ottawa,"Product Manager, Data Science",Numerator,"Ottawa, ON•Remote",Nothing_found
822,Ottawa,Machine Learning Engineer,People force Consulting,"Ottawa, ON•Temporarily Remote",$60 an hour
823,Ottawa,Revenue and Cost Analyst,Lumentum Operations LLC,"Ottawa, ON",Nothing_found
824,Ottawa,"Senior Director, Analytics and Insights",Bank of Canada,"Ottawa, ON","$166,000 - $207,000 a year"
825,Ottawa,Machine Learning Scientist (Can be Remote Within Canada),BluWave-ai,"Ottawa, ON•Remote",Nothing_found
826,Ottawa,Software Engineer - Machine Learning (Remote),Yelp,"Ottawa, ON•Remote",Nothing_found
827,Ottawa,Senior Data Analyst (Marketing),Lightspeed Commerce,"Ottawa, ON",Nothing_found
828,Ottawa,CRC Tier 2 Data Analytics for Health Systems Transformation,University of Ottawa,"Ottawa, ON","$20,000 a year"
829,Ottawa,AI Ops Engineer,Ciena,"Ottawa, ON",Nothing_found
830,Ottawa,"Deals, Analytics, Enterprise Data Architect, Senior Manager",PwC,"Ottawa, ON",Nothing_found
831,Ottawa,"Professor in Business Analytics and AI (Predictive Analytics), Assistant rank",University of Ottawa,"Ottawa, ON","$94,000 - $130,000 a year"
832,Ottawa,Senior AI – Machine Learning Engineer,ThinkRF Corp,"Kanata, ON•Temporarily Remote",Nothing_found
833,Ottawa,"Data Scientist - Medical Diagnostics Projects - $95,000 base - Ottawa",CorGTA Inc.,"Ottawa, ON•Remote","$85,000 - $95,000 a year"
834,Ottawa,Python Cloud Developer,High Tech Genesis,"Ottawa, ON",Nothing_found
835,Ottawa,Machine Learning Scientist (Can be Remote Within Canada),BluWave-ai,"Ottawa, ON•Remote",Nothing_found
836,Ottawa,Software Engineer - Machine Learning (Remote),Yelp,"Ottawa, ON•Remote",Nothing_found
837,Ottawa,Senior Data Analyst (Marketing),Lightspeed Commerce,"Ottawa, ON",Nothing_found
838,Ottawa,Solution Architect - Analytics Environment,Bank of Canada,"Ottawa, ON","$95,482 - $119,352 a year"
839,Ottawa,CRC Tier 2 Data Analytics for Health Systems Transformation,University of Ottawa,"Ottawa, ON","$20,000 a year"
840,Ottawa,AI Ops Engineer,Ciena,"Ottawa, ON",Nothing_found
841,Ottawa,"Professor in Business Analytics and AI (Predictive Analytics), Assistant rank",University of Ottawa,"Ottawa, ON","$94,000 - $130,000 a year"
842,Ottawa,"Deals, Analytics, Enterprise Data Architect, Senior Manager",PwC,"Ottawa, ON",Nothing_found
843,Ottawa,Python Cloud Developer,High Tech Genesis,"Ottawa, ON",Nothing_found
844,Ottawa,Senior AI – Machine Learning Engineer,ThinkRF Corp,"Kanata, ON•Temporarily Remote",Nothing_found
